﻿
DisplayName "Nameless Slums"



EVENT   37
 PAGE   1
  250(bytes(0x04,0x08,0x6f,0x3a,0x0c,0x52,0x50,0x47,0x3a,0x3a,0x53,0x45,0x08,0x3a,0x0a,0x40,0x6e,0x61,0x6d,0x65,0x49,0x22,0x09,0x4d,0x6f,0x76,0x65,0x06,0x3a,0x06,0x45,0x54,0x3a,0x0b,0x40,0x70,0x69,0x74,0x63,0x68,0x69,0x69,0x3a,0x0c,0x40,0x76,0x6f,0x6c,0x75,0x6d,0x65,0x69,0x55))
  TeleportPlayer(0,185,28,10,0,0)
  0()



EVENT   38
 PAGE   1
  250(bytes(0x04,0x08,0x6f,0x3a,0x0c,0x52,0x50,0x47,0x3a,0x3a,0x53,0x45,0x08,0x3a,0x0a,0x40,0x6e,0x61,0x6d,0x65,0x49,0x22,0x09,0x4d,0x6f,0x76,0x65,0x06,0x3a,0x06,0x45,0x54,0x3a,0x0b,0x40,0x70,0x69,0x74,0x63,0x68,0x69,0x69,0x3a,0x0c,0x40,0x76,0x6f,0x6c,0x75,0x6d,0x65,0x69,0x55))
  TeleportPlayer(0,185,7,11,0,0)
  0()



EVENT   39
 PAGE   1
  ChangeSwitch(31,31,1)
  250(bytes(0x04,0x08,0x6f,0x3a,0x0c,0x52,0x50,0x47,0x3a,0x3a,0x53,0x45,0x08,0x3a,0x0a,0x40,0x6e,0x61,0x6d,0x65,0x49,0x22,0x09,0x4d,0x6f,0x76,0x65,0x06,0x3a,0x06,0x45,0x54,0x3a,0x0b,0x40,0x70,0x69,0x74,0x63,0x68,0x69,0x69,0x3a,0x0c,0x40,0x76,0x6f,0x6c,0x75,0x6d,0x65,0x69,0x55))
  TeleportPlayer(0,185,50,13,0,0)
  0()



EVENT   40
 PAGE   1
  250(bytes(0x04,0x08,0x6f,0x3a,0x0c,0x52,0x50,0x47,0x3a,0x3a,0x53,0x45,0x08,0x3a,0x0a,0x40,0x6e,0x61,0x6d,0x65,0x49,0x22,0x09,0x4d,0x6f,0x76,0x65,0x06,0x3a,0x06,0x45,0x54,0x3a,0x0b,0x40,0x70,0x69,0x74,0x63,0x68,0x69,0x69,0x3a,0x0c,0x40,0x76,0x6f,0x6c,0x75,0x6d,0x65,0x69,0x55))
  TeleportPlayer(0,185,28,24,0,0)
  0()



EVENT   41
 PAGE   1
  250(bytes(0x04,0x08,0x6f,0x3a,0x0c,0x52,0x50,0x47,0x3a,0x3a,0x53,0x45,0x08,0x3a,0x0a,0x40,0x6e,0x61,0x6d,0x65,0x49,0x22,0x09,0x4d,0x6f,0x76,0x65,0x06,0x3a,0x06,0x45,0x54,0x3a,0x0b,0x40,0x70,0x69,0x74,0x63,0x68,0x69,0x69,0x3a,0x0c,0x40,0x76,0x6f,0x6c,0x75,0x6d,0x65,0x69,0x55))
  TeleportPlayer(0,185,8,24,0,0)
  0()



EVENT   42
 PAGE   1
  ShowMessageFace("",0,0,2,1)
  ShowMessage("Luka leaves his companions outside and enters the tent alone...")
  250(bytes(0x04,0x08,0x6f,0x3a,0x0c,0x52,0x50,0x47,0x3a,0x3a,0x53,0x45,0x08,0x3a,0x0a,0x40,0x6e,0x61,0x6d,0x65,0x49,0x22,0x09,0x4d,0x6f,0x76,0x65,0x06,0x3a,0x06,0x45,0x54,0x3a,0x0b,0x40,0x70,0x69,0x74,0x63,0x68,0x69,0x69,0x3a,0x0c,0x40,0x76,0x6f,0x6c,0x75,0x6d,0x65,0x69,0x55))
  216(1)
  TeleportPlayer(0,185,28,38,0,0)
  0()



EVENT   43
 PAGE   1
  250(bytes(0x04,0x08,0x6f,0x3a,0x0c,0x52,0x50,0x47,0x3a,0x3a,0x53,0x45,0x08,0x3a,0x0a,0x40,0x6e,0x61,0x6d,0x65,0x49,0x22,0x09,0x4d,0x6f,0x76,0x65,0x06,0x3a,0x06,0x45,0x54,0x3a,0x0b,0x40,0x70,0x69,0x74,0x63,0x68,0x69,0x69,0x3a,0x0c,0x40,0x76,0x6f,0x6c,0x75,0x6d,0x65,0x69,0x55))
  TeleportPlayer(0,185,7,42,0,0)
  0()



EVENT   44
 PAGE   1
  250(bytes(0x04,0x08,0x6f,0x3a,0x0c,0x52,0x50,0x47,0x3a,0x3a,0x53,0x45,0x08,0x3a,0x0a,0x40,0x6e,0x61,0x6d,0x65,0x49,0x22,0x09,0x4d,0x6f,0x76,0x65,0x06,0x3a,0x06,0x45,0x54,0x3a,0x0b,0x40,0x70,0x69,0x74,0x63,0x68,0x69,0x69,0x3a,0x0c,0x40,0x76,0x6f,0x6c,0x75,0x6d,0x65,0x69,0x55))
  TeleportPlayer(0,185,7,59,0,0)
  0()



EVENT   1
 PAGE   1
  250(bytes(0x04,0x08,0x6f,0x3a,0x0c,0x52,0x50,0x47,0x3a,0x3a,0x53,0x45,0x08,0x3a,0x0a,0x40,0x6e,0x61,0x6d,0x65,0x49,0x22,0x09,0x4d,0x6f,0x76,0x65,0x06,0x3a,0x06,0x45,0x54,0x3a,0x0b,0x40,0x70,0x69,0x74,0x63,0x68,0x69,0x69,0x3a,0x0c,0x40,0x76,0x6f,0x6c,0x75,0x6d,0x65,0x69,0x55))
  TeleportPlayer(0,2,236,340,2,0)
  0()



EVENT   47
 PAGE   1
  // condition: variable 1004 >= 1
  ChangeSelfSwitch("A",0)
  If(0,6,0)
   ShowMessageFace("sonia_fc3",6,0,2,1)
   ShowMessage("\\n<Sonya>This place is a dump. These must be the slums we're looking for. All right, mission start!")
   ShowMessageFace("ruka_fc1",0,0,2,2)
   ShowMessage("\\n<Luka>Why are you so excited for this...")
   ShowMessageFace("sonia_fc1",3,0,2,3)
   ShowMessage("\\n<Sonya>As our undercover femme fatale, I need to start gathering information. That means finding the nearest bar!")
   ShowMessageFace("ruka_fc1",0,0,2,4)
   ShowMessage("\\n<Luka>......")
   ShowMessageFace("",0,0,2,5)
   ShowMessage("She always did like drinking more than I do.")
   0()
  Else()
   ShowMessageFace("ruka_fc1",0,0,2,6)
   ShowMessage("\\n<Luka>These must be the slums we're looking for. First, I guess we should gather information at a bar.")
   0()
  EndIf()
  If(0,4,0)
   ShowMessageFace("alice_fc5",0,0,2,7)
   ShowMessage("\\n<Alice>Asking random people for information isn't my style. Let's just confront this Don Dahlia person.")
   If(4,62,0)
    ShowMessageFace("gob_fc1",0,0,2,8)
    ShowMessage("\\n<Gob>I agree! I'll beat the crap out of her for you!")
    0()
   EndIf()
   0()
  EndIf()
  If(0,5,0)
   ShowMessageFace("iriasu_fc4",2,0,2,9)
   ShowMessage("\\n<Ilias>If I were at full power, my clairvoyance could solve this matter in an instant. I can't believe I'm sneaking around this dump like a crook instead.")
   If(4,66,0)
    ShowMessageFace("vgirl_fc1",0,0,2,10)
    ShowMessage("\\n<Vanilla>Sounds fun to me! Honest merchants should put an end to illicit trade!")
    0()
   EndIf()
   0()
  EndIf()
  ShowMessageFace("ruka_fc1",0,0,2,11)
  ShowMessage("\\n<Luka>So we can gather information first or go find Don Dahlia instead. Either option could work.")
  0()
 PAGE   2
  // condition: self-switch A is ON
  0()



EVENT   46
 PAGE   1
  250(bytes(0x04,0x08,0x6f,0x3a,0x0c,0x52,0x50,0x47,0x3a,0x3a,0x53,0x45,0x08,0x3a,0x0a,0x40,0x6e,0x61,0x6d,0x65,0x49,0x22,0x0a,0x4f,0x70,0x65,0x6e,0x31,0x06,0x3a,0x06,0x45,0x54,0x3a,0x0b,0x40,0x70,0x69,0x74,0x63,0x68,0x69,0x69,0x3a,0x0c,0x40,0x76,0x6f,0x6c,0x75,0x6d,0x65,0x69,0x55))
  205(0,bytes(0x04,0x08,0x6f,0x3a,0x13,0x52,0x50,0x47,0x3a,0x3a,0x4d,0x6f,0x76,0x65,0x52,0x6f,0x75,0x74,0x65,0x09,0x3a,0x0c,0x40,0x72,0x65,0x70,0x65,0x61,0x74,0x46,0x3a,0x0f,0x40,0x73,0x6b,0x69,0x70,0x70,0x61,0x62,0x6c,0x65,0x46,0x3a,0x0a,0x40,0x77,0x61,0x69,0x74,0x54,0x3a,0x0a,0x40,0x6c,0x69,0x73,0x74,0x5b,0x0c,0x6f,0x3a,0x15,0x52,0x50,0x47,0x3a,0x3a,0x4d,0x6f,0x76,0x65,0x43,0x6f,0x6d,0x6d,0x61,0x6e,0x64,0x07,0x3a,0x0a,0x40,0x63,0x6f,0x64,0x65,0x69,0x16,0x3a,0x10,0x40,0x70,0x61,0x72,0x61,0x6d,0x65,0x74,0x65,0x72,0x73,0x5b,0x00,0x6f,0x3b,0x0a,0x07,0x3b,0x0b,0x69,0x14,0x3b,0x0c,0x5b,0x06,0x69,0x08,0x6f,0x3b,0x0a,0x07,0x3b,0x0b,0x69,0x17,0x3b,0x0c,0x5b,0x00,0x6f,0x3b,0x0a,0x07,0x3b,0x0b,0x69,0x14,0x3b,0x0c,0x5b,0x06,0x69,0x08,0x6f,0x3b,0x0a,0x07,0x3b,0x0b,0x69,0x18,0x3b,0x0c,0x5b,0x00,0x6f,0x3b,0x0a,0x07,0x3b,0x0b,0x69,0x2a,0x3b,0x0c,0x5b,0x00,0x6f,0x3b,0x0a,0x07,0x3b,0x0b,0x69,0x00,0x3b,0x0c,0x5b,0x00))
  205(-1,bytes(0x04,0x08,0x6f,0x3a,0x13,0x52,0x50,0x47,0x3a,0x3a,0x4d,0x6f,0x76,0x65,0x52,0x6f,0x75,0x74,0x65,0x09,0x3a,0x0c,0x40,0x72,0x65,0x70,0x65,0x61,0x74,0x46,0x3a,0x0f,0x40,0x73,0x6b,0x69,0x70,0x70,0x61,0x62,0x6c,0x65,0x54,0x3a,0x0a,0x40,0x77,0x61,0x69,0x74,0x54,0x3a,0x0a,0x40,0x6c,0x69,0x73,0x74,0x5b,0x07,0x6f,0x3a,0x15,0x52,0x50,0x47,0x3a,0x3a,0x4d,0x6f,0x76,0x65,0x43,0x6f,0x6d,0x6d,0x61,0x6e,0x64,0x07,0x3a,0x0a,0x40,0x63,0x6f,0x64,0x65,0x69,0x11,0x3a,0x10,0x40,0x70,0x61,0x72,0x61,0x6d,0x65,0x74,0x65,0x72,0x73,0x5b,0x00,0x6f,0x3b,0x0a,0x07,0x3b,0x0b,0x69,0x00,0x3b,0x0c,0x5b,0x00))
  250(bytes(0x04,0x08,0x6f,0x3a,0x0c,0x52,0x50,0x47,0x3a,0x3a,0x53,0x45,0x08,0x3a,0x0a,0x40,0x6e,0x61,0x6d,0x65,0x49,0x22,0x09,0x4d,0x6f,0x76,0x65,0x06,0x3a,0x06,0x45,0x54,0x3a,0x0b,0x40,0x70,0x69,0x74,0x63,0x68,0x69,0x69,0x3a,0x0c,0x40,0x76,0x6f,0x6c,0x75,0x6d,0x65,0x69,0x55))
  TeleportPlayer(0,185,57,52,0,0)
  0()



EVENT   45
 PAGE   1
  If(8,506)
   If(1,1004,0,5,2)
    ChangeSwitch(2026,2026,1)
    ChangeSwitch(2025,2025,1)
    0()
   Else()
    0()
   EndIf()
   ShowMessageFace("",0,0,2,1)
   ShowMessage("Used the Slum Key!")
   250(bytes(0x04,0x08,0x6f,0x3a,0x0c,0x52,0x50,0x47,0x3a,0x3a,0x53,0x45,0x08,0x3a,0x0a,0x40,0x6e,0x61,0x6d,0x65,0x49,0x22,0x0a,0x4f,0x70,0x65,0x6e,0x31,0x06,0x3a,0x06,0x45,0x54,0x3a,0x0b,0x40,0x70,0x69,0x74,0x63,0x68,0x69,0x69,0x3a,0x0c,0x40,0x76,0x6f,0x6c,0x75,0x6d,0x65,0x69,0x55))
   205(0,bytes(0x04,0x08,0x6f,0x3a,0x13,0x52,0x50,0x47,0x3a,0x3a,0x4d,0x6f,0x76,0x65,0x52,0x6f,0x75,0x74,0x65,0x09,0x3a,0x0c,0x40,0x72,0x65,0x70,0x65,0x61,0x74,0x46,0x3a,0x0f,0x40,0x73,0x6b,0x69,0x70,0x70,0x61,0x62,0x6c,0x65,0x46,0x3a,0x0a,0x40,0x77,0x61,0x69,0x74,0x54,0x3a,0x0a,0x40,0x6c,0x69,0x73,0x74,0x5b,0x0c,0x6f,0x3a,0x15,0x52,0x50,0x47,0x3a,0x3a,0x4d,0x6f,0x76,0x65,0x43,0x6f,0x6d,0x6d,0x61,0x6e,0x64,0x07,0x3a,0x0a,0x40,0x63,0x6f,0x64,0x65,0x69,0x16,0x3a,0x10,0x40,0x70,0x61,0x72,0x61,0x6d,0x65,0x74,0x65,0x72,0x73,0x5b,0x00,0x6f,0x3b,0x0a,0x07,0x3b,0x0b,0x69,0x14,0x3b,0x0c,0x5b,0x06,0x69,0x08,0x6f,0x3b,0x0a,0x07,0x3b,0x0b,0x69,0x17,0x3b,0x0c,0x5b,0x00,0x6f,0x3b,0x0a,0x07,0x3b,0x0b,0x69,0x14,0x3b,0x0c,0x5b,0x06,0x69,0x08,0x6f,0x3b,0x0a,0x07,0x3b,0x0b,0x69,0x18,0x3b,0x0c,0x5b,0x00,0x6f,0x3b,0x0a,0x07,0x3b,0x0b,0x69,0x2a,0x3b,0x0c,0x5b,0x00,0x6f,0x3b,0x0a,0x07,0x3b,0x0b,0x69,0x00,0x3b,0x0c,0x5b,0x00))
   205(-1,bytes(0x04,0x08,0x6f,0x3a,0x13,0x52,0x50,0x47,0x3a,0x3a,0x4d,0x6f,0x76,0x65,0x52,0x6f,0x75,0x74,0x65,0x09,0x3a,0x0c,0x40,0x72,0x65,0x70,0x65,0x61,0x74,0x46,0x3a,0x0f,0x40,0x73,0x6b,0x69,0x70,0x70,0x61,0x62,0x6c,0x65,0x54,0x3a,0x0a,0x40,0x77,0x61,0x69,0x74,0x54,0x3a,0x0a,0x40,0x6c,0x69,0x73,0x74,0x5b,0x07,0x6f,0x3a,0x15,0x52,0x50,0x47,0x3a,0x3a,0x4d,0x6f,0x76,0x65,0x43,0x6f,0x6d,0x6d,0x61,0x6e,0x64,0x07,0x3a,0x0a,0x40,0x63,0x6f,0x64,0x65,0x69,0x11,0x3a,0x10,0x40,0x70,0x61,0x72,0x61,0x6d,0x65,0x74,0x65,0x72,0x73,0x5b,0x00,0x6f,0x3b,0x0a,0x07,0x3b,0x0b,0x69,0x00,0x3b,0x0c,0x5b,0x00))
   250(bytes(0x04,0x08,0x6f,0x3a,0x0c,0x52,0x50,0x47,0x3a,0x3a,0x53,0x45,0x08,0x3a,0x0a,0x40,0x6e,0x61,0x6d,0x65,0x49,0x22,0x09,0x4d,0x6f,0x76,0x65,0x06,0x3a,0x06,0x45,0x54,0x3a,0x0b,0x40,0x70,0x69,0x74,0x63,0x68,0x69,0x69,0x3a,0x0c,0x40,0x76,0x6f,0x6c,0x75,0x6d,0x65,0x69,0x55))
   TeleportPlayer(0,185,52,32,0,0)
   EndEventProcessing()
   0()
  EndIf()
  If(1,1004,0,3,0)
   ChangeVariable(1004,1004,0,0,4)
   ShowMessageFace("ruka_fc1",0,0,2,2)
   ShowMessage("\\n<Luka>It seems to be locked.")
   ChangeSwitch(2024,2024,0)
   205(49,bytes(0x04,0x08,0x6f,0x3a,0x13,0x52,0x50,0x47,0x3a,0x3a,0x4d,0x6f,0x76,0x65,0x52,0x6f,0x75,0x74,0x65,0x09,0x3a,0x0c,0x40,0x72,0x65,0x70,0x65,0x61,0x74,0x46,0x3a,0x0f,0x40,0x73,0x6b,0x69,0x70,0x70,0x61,0x62,0x6c,0x65,0x46,0x3a,0x0a,0x40,0x77,0x61,0x69,0x74,0x54,0x3a,0x0a,0x40,0x6c,0x69,0x73,0x74,0x5b,0x14,0x6f,0x3a,0x15,0x52,0x50,0x47,0x3a,0x3a,0x4d,0x6f,0x76,0x65,0x43,0x6f,0x6d,0x6d,0x61,0x6e,0x64,0x07,0x3a,0x0a,0x40,0x63,0x6f,0x64,0x65,0x69,0x2a,0x3a,0x10,0x40,0x70,0x61,0x72,0x61,0x6d,0x65,0x74,0x65,0x72,0x73,0x5b,0x00,0x6f,0x3b,0x0a,0x07,0x3b,0x0b,0x69,0x06,0x3b,0x0c,0x5b,0x00,0x6f,0x3b,0x0a,0x07,0x3b,0x0b,0x69,0x06,0x3b,0x0c,0x5b,0x00,0x6f,0x3b,0x0a,0x07,0x3b,0x0b,0x69,0x06,0x3b,0x0c,0x5b,0x00,0x6f,0x3b,0x0a,0x07,0x3b,0x0b,0x69,0x06,0x3b,0x0c,0x5b,0x00,0x6f,0x3b,0x0a,0x07,0x3b,0x0b,0x69,0x06,0x3b,0x0c,0x5b,0x00,0x6f,0x3b,0x0a,0x07,0x3b,0x0b,0x69,0x06,0x3b,0x0c,0x5b,0x00,0x6f,0x3b,0x0a,0x07,0x3b,0x0b,0x69,0x06,0x3b,0x0c,0x5b,0x00,0x6f,0x3b,0x0a,0x07,0x3b,0x0b,0x69,0x06,0x3b,0x0c,0x5b,0x00,0x6f,0x3b,0x0a,0x07,0x3b,0x0b,0x69,0x06,0x3b,0x0c,0x5b,0x00,0x6f,0x3b,0x0a,0x07,0x3b,0x0b,0x69,0x06,0x3b,0x0c,0x5b,0x00,0x6f,0x3b,0x0a,0x07,0x3b,0x0b,0x69,0x08,0x3b,0x0c,0x5b,0x00,0x6f,0x3b,0x0a,0x07,0x3b,0x0b,0x69,0x08,0x3b,0x0c,0x5b,0x00,0x6f,0x3b,0x0a,0x07,0x3b,0x0b,0x69,0x08,0x3b,0x0c,0x5b,0x00,0x6f,0x3b,0x0a,0x07,0x3b,0x0b,0x69,0x00,0x3b,0x0c,0x5b,0x00))
   PictureDisplay(5,"80_dondaria_st01",0,0,0,0,100,100,0,0)
   PictureMove(5,null,0,0,0,0,100,100,255,0,30,true)
   ShowMessageFace("dondaria_fc1",0,0,2,3)
   ShowMessage("\\n<Don Dahlia>What's going on over there? Move outta the way.")
   PictureMove(5,null,0,0,0,0,100,100,0,0,30,true)
   PictureClear(5)
   205(-1,bytes(0x04,0x08,0x6f,0x3a,0x13,0x52,0x50,0x47,0x3a,0x3a,0x4d,0x6f,0x76,0x65,0x52,0x6f,0x75,0x74,0x65,0x09,0x3a,0x0c,0x40,0x72,0x65,0x70,0x65,0x61,0x74,0x46,0x3a,0x0f,0x40,0x73,0x6b,0x69,0x70,0x70,0x61,0x62,0x6c,0x65,0x46,0x3a,0x0a,0x40,0x77,0x61,0x69,0x74,0x54,0x3a,0x0a,0x40,0x6c,0x69,0x73,0x74,0x5b,0x08,0x6f,0x3a,0x15,0x52,0x50,0x47,0x3a,0x3a,0x4d,0x6f,0x76,0x65,0x43,0x6f,0x6d,0x6d,0x61,0x6e,0x64,0x07,0x3a,0x0a,0x40,0x63,0x6f,0x64,0x65,0x69,0x08,0x3a,0x10,0x40,0x70,0x61,0x72,0x61,0x6d,0x65,0x74,0x65,0x72,0x73,0x5b,0x00,0x6f,0x3b,0x0a,0x07,0x3b,0x0b,0x69,0x16,0x3b,0x0c,0x5b,0x00,0x6f,0x3b,0x0a,0x07,0x3b,0x0b,0x69,0x00,0x3b,0x0c,0x5b,0x00))
   205(49,bytes(0x04,0x08,0x6f,0x3a,0x13,0x52,0x50,0x47,0x3a,0x3a,0x4d,0x6f,0x76,0x65,0x52,0x6f,0x75,0x74,0x65,0x09,0x3a,0x0c,0x40,0x72,0x65,0x70,0x65,0x61,0x74,0x46,0x3a,0x0f,0x40,0x73,0x6b,0x69,0x70,0x70,0x61,0x62,0x6c,0x65,0x46,0x3a,0x0a,0x40,0x77,0x61,0x69,0x74,0x54,0x3a,0x0a,0x40,0x6c,0x69,0x73,0x74,0x5b,0x0b,0x6f,0x3a,0x15,0x52,0x50,0x47,0x3a,0x3a,0x4d,0x6f,0x76,0x65,0x43,0x6f,0x6d,0x6d,0x61,0x6e,0x64,0x07,0x3a,0x0a,0x40,0x63,0x6f,0x64,0x65,0x69,0x22,0x3a,0x10,0x40,0x70,0x61,0x72,0x61,0x6d,0x65,0x74,0x65,0x72,0x73,0x5b,0x06,0x69,0x08,0x6f,0x3b,0x0a,0x07,0x3b,0x0b,0x69,0x23,0x3b,0x0c,0x5b,0x06,0x69,0x08,0x6f,0x3b,0x0a,0x07,0x3b,0x0b,0x69,0x2a,0x3b,0x0c,0x5b,0x00,0x6f,0x3b,0x0a,0x07,0x3b,0x0b,0x69,0x08,0x3b,0x0c,0x5b,0x00,0x6f,0x3b,0x0a,0x07,0x3b,0x0b,0x69,0x18,0x3b,0x0c,0x5b,0x00,0x6f,0x3b,0x0a,0x07,0x3b,0x0b,0x69,0x00,0x3b,0x0c,0x5b,0x00))
   250(bytes(0x04,0x08,0x6f,0x3a,0x0c,0x52,0x50,0x47,0x3a,0x3a,0x53,0x45,0x08,0x3a,0x0a,0x40,0x6e,0x61,0x6d,0x65,0x49,0x22,0x0a,0x4f,0x70,0x65,0x6e,0x31,0x06,0x3a,0x06,0x45,0x54,0x3a,0x0b,0x40,0x70,0x69,0x74,0x63,0x68,0x69,0x69,0x3a,0x0c,0x40,0x76,0x6f,0x6c,0x75,0x6d,0x65,0x69,0x55))
   205(0,bytes(0x04,0x08,0x6f,0x3a,0x13,0x52,0x50,0x47,0x3a,0x3a,0x4d,0x6f,0x76,0x65,0x52,0x6f,0x75,0x74,0x65,0x09,0x3a,0x0c,0x40,0x72,0x65,0x70,0x65,0x61,0x74,0x46,0x3a,0x0f,0x40,0x73,0x6b,0x69,0x70,0x70,0x61,0x62,0x6c,0x65,0x46,0x3a,0x0a,0x40,0x77,0x61,0x69,0x74,0x54,0x3a,0x0a,0x40,0x6c,0x69,0x73,0x74,0x5b,0x0c,0x6f,0x3a,0x15,0x52,0x50,0x47,0x3a,0x3a,0x4d,0x6f,0x76,0x65,0x43,0x6f,0x6d,0x6d,0x61,0x6e,0x64,0x07,0x3a,0x0a,0x40,0x63,0x6f,0x64,0x65,0x69,0x16,0x3a,0x10,0x40,0x70,0x61,0x72,0x61,0x6d,0x65,0x74,0x65,0x72,0x73,0x5b,0x00,0x6f,0x3b,0x0a,0x07,0x3b,0x0b,0x69,0x14,0x3b,0x0c,0x5b,0x06,0x69,0x08,0x6f,0x3b,0x0a,0x07,0x3b,0x0b,0x69,0x17,0x3b,0x0c,0x5b,0x00,0x6f,0x3b,0x0a,0x07,0x3b,0x0b,0x69,0x14,0x3b,0x0c,0x5b,0x06,0x69,0x08,0x6f,0x3b,0x0a,0x07,0x3b,0x0b,0x69,0x18,0x3b,0x0c,0x5b,0x00,0x6f,0x3b,0x0a,0x07,0x3b,0x0b,0x69,0x2a,0x3b,0x0c,0x5b,0x00,0x6f,0x3b,0x0a,0x07,0x3b,0x0b,0x69,0x00,0x3b,0x0c,0x5b,0x00))
   205(49,bytes(0x04,0x08,0x6f,0x3a,0x13,0x52,0x50,0x47,0x3a,0x3a,0x4d,0x6f,0x76,0x65,0x52,0x6f,0x75,0x74,0x65,0x09,0x3a,0x0c,0x40,0x72,0x65,0x70,0x65,0x61,0x74,0x46,0x3a,0x0f,0x40,0x73,0x6b,0x69,0x70,0x70,0x61,0x62,0x6c,0x65,0x46,0x3a,0x0a,0x40,0x77,0x61,0x69,0x74,0x54,0x3a,0x0a,0x40,0x6c,0x69,0x73,0x74,0x5b,0x07,0x6f,0x3a,0x15,0x52,0x50,0x47,0x3a,0x3a,0x4d,0x6f,0x76,0x65,0x43,0x6f,0x6d,0x6d,0x61,0x6e,0x64,0x07,0x3a,0x0a,0x40,0x63,0x6f,0x64,0x65,0x69,0x11,0x3a,0x10,0x40,0x70,0x61,0x72,0x61,0x6d,0x65,0x74,0x65,0x72,0x73,0x5b,0x00,0x6f,0x3b,0x0a,0x07,0x3b,0x0b,0x69,0x00,0x3b,0x0c,0x5b,0x00))
   250(bytes(0x04,0x08,0x6f,0x3a,0x0c,0x52,0x50,0x47,0x3a,0x3a,0x53,0x45,0x08,0x3a,0x0a,0x40,0x6e,0x61,0x6d,0x65,0x49,0x22,0x09,0x4d,0x6f,0x76,0x65,0x06,0x3a,0x06,0x45,0x54,0x3a,0x0b,0x40,0x70,0x69,0x74,0x63,0x68,0x69,0x69,0x3a,0x0c,0x40,0x76,0x6f,0x6c,0x75,0x6d,0x65,0x69,0x55))
   ChangeSwitch(2024,2024,1)
   205(0,bytes(0x04,0x08,0x6f,0x3a,0x13,0x52,0x50,0x47,0x3a,0x3a,0x4d,0x6f,0x76,0x65,0x52,0x6f,0x75,0x74,0x65,0x09,0x3a,0x0c,0x40,0x72,0x65,0x70,0x65,0x61,0x74,0x46,0x3a,0x0f,0x40,0x73,0x6b,0x69,0x70,0x70,0x61,0x62,0x6c,0x65,0x46,0x3a,0x0a,0x40,0x77,0x61,0x69,0x74,0x54,0x3a,0x0a,0x40,0x6c,0x69,0x73,0x74,0x5b,0x08,0x6f,0x3a,0x15,0x52,0x50,0x47,0x3a,0x3a,0x4d,0x6f,0x76,0x65,0x43,0x6f,0x6d,0x6d,0x61,0x6e,0x64,0x07,0x3a,0x0a,0x40,0x63,0x6f,0x64,0x65,0x69,0x2b,0x3a,0x10,0x40,0x70,0x61,0x72,0x61,0x6d,0x65,0x74,0x65,0x72,0x73,0x5b,0x00,0x6f,0x3b,0x0a,0x07,0x3b,0x0b,0x69,0x15,0x3b,0x0c,0x5b,0x00,0x6f,0x3b,0x0a,0x07,0x3b,0x0b,0x69,0x00,0x3b,0x0c,0x5b,0x00))
   If(0,6,0)
    ShowMessageFace("sonia_fc2",2,0,2,4)
    ShowMessage("\\n<Sonya>This is a rather suspicious building...")
    0()
   Else()
    ShowMessageFace("ruka_fc1",0,0,2,5)
    ShowMessage("\\n<Luka>This is a rather suspicious building...")
    0()
   EndIf()
   ShowMessageFace("",0,0,2,6)
   ShowMessage("It's locked and we can't get in though. If we could get the key from Don Dahlia somehow...")
   ShowMessageFace("ruka_fc1",0,0,2,7)
   ShowMessage("\\n<Luka>That reminds me, how about that pickpocket in the bar...")
   EndEventProcessing()
   0()
  EndIf()
  ShowMessageFace("",0,0,2,8)
  ShowMessage("The door is locked...")
  EndEventProcessing()
  0()



EVENT   49
 PAGE   1
  // condition: switch 2024 is ON
  0()



EVENT   50
 PAGE   1
  ShowMessageFace("",0,0,2,1)
  ShowMessage("\\n<Ruffian>The name of this town? Ain't got one, just the slums. Where you wanna go?")
  281(1)
  355("unlimited_choices(11, [\"Inn\", \"Item Shop\",")
  655("\"Church\",\"Bar\",\"Never mind\"])")
  If(1,11,0,0,0)
   TeleportPlayer(0,235,9,11,2,0)
   EndEventProcessing()
   0()
  EndIf()
  If(1,11,0,1,0)
   TeleportPlayer(0,235,16,8,2,0)
   EndEventProcessing()
   0()
  EndIf()
  If(1,11,0,2,0)
   TeleportPlayer(0,235,29,4,2,0)
   EndEventProcessing()
   0()
  EndIf()
  If(1,11,0,3,0)
   TeleportPlayer(0,235,35,8,2,0)
   EndEventProcessing()
   0()
  EndIf()
  If(1,11,0,4,0)
   EndEventProcessing()
   0()
  EndIf()
  0()



EVENT   51
 PAGE   1
  If(1,1004,0,5,2)
   ShowMessageFace("",0,0,2,1)
   ShowMessage("\\n<Warrior>I heard they sell Phoenix Tails cheaply in this town, but for some reason they won't sell me any.")
   ShowMessageFace("",0,0,2,2)
   ShowMessage("\\n<Warrior>Where are they sold? The tent beside the item shop is definitely the right place, but why can't I buy them...?")
   EndEventProcessing()
   0()
  EndIf()
  If(1,1004,0,6,0)
   ShowMessageFace("",0,0,2,3)
   ShowMessage("\\n<Warrior>Supposedly they aren't selling Phoenix Tails anymore, but it's not like they sold any to me in the first place.")
   355("actor_label_jump")
   EndEventProcessing()
   DefineLabel("72")
   ShowMessageFace("phoenix_fc1",3,0,2,4)
   ShowMessage("\\n<Mini>Aww, that's so sad. Would you like one of my tails?")
   EndEventProcessing()
   0()
  EndIf()
  0()



EVENT   54
 PAGE   1
  ShowMessageFace("",0,0,2,1)
  ShowMessage("\\n<Middle-Aged Man>Lots of false info and scammers around here. Be careful who you trust.")
  0()



EVENT   55
 PAGE   1
  250(bytes(0x04,0x08,0x6f,0x3a,0x0c,0x52,0x50,0x47,0x3a,0x3a,0x53,0x45,0x08,0x3a,0x0a,0x40,0x6e,0x61,0x6d,0x65,0x49,0x22,0x0a,0x49,0x74,0x65,0x6d,0x31,0x06,0x3a,0x06,0x45,0x54,0x3a,0x0b,0x40,0x70,0x69,0x74,0x63,0x68,0x69,0x69,0x3a,0x0c,0x40,0x76,0x6f,0x6c,0x75,0x6d,0x65,0x69,0x55))
  ChangeSelfSwitch("A",0)
  ChangeInventory_Item(14,0,0,1)
  0()
 PAGE   2
  // condition: self-switch A is ON
  0()



EVENT   56
 PAGE   1
  250(bytes(0x04,0x08,0x6f,0x3a,0x0c,0x52,0x50,0x47,0x3a,0x3a,0x53,0x45,0x08,0x3a,0x0a,0x40,0x6e,0x61,0x6d,0x65,0x49,0x22,0x0a,0x49,0x74,0x65,0x6d,0x31,0x06,0x3a,0x06,0x45,0x54,0x3a,0x0b,0x40,0x70,0x69,0x74,0x63,0x68,0x69,0x69,0x3a,0x0c,0x40,0x76,0x6f,0x6c,0x75,0x6d,0x65,0x69,0x55))
  ChangeSelfSwitch("A",0)
  ChangeInventory_Item(13,0,0,1)
  0()
 PAGE   2
  // condition: self-switch A is ON
  0()



EVENT   57
 PAGE   1
  250(bytes(0x04,0x08,0x6f,0x3a,0x0c,0x52,0x50,0x47,0x3a,0x3a,0x53,0x45,0x08,0x3a,0x0a,0x40,0x6e,0x61,0x6d,0x65,0x49,0x22,0x0a,0x49,0x74,0x65,0x6d,0x31,0x06,0x3a,0x06,0x45,0x54,0x3a,0x0b,0x40,0x70,0x69,0x74,0x63,0x68,0x69,0x69,0x3a,0x0c,0x40,0x76,0x6f,0x6c,0x75,0x6d,0x65,0x69,0x55))
  ChangeSelfSwitch("A",0)
  ChangeInventory_Item(7,0,0,1)
  0()
 PAGE   2
  // condition: self-switch A is ON
  0()



EVENT   58
 PAGE   1
  250(bytes(0x04,0x08,0x6f,0x3a,0x0c,0x52,0x50,0x47,0x3a,0x3a,0x53,0x45,0x08,0x3a,0x0a,0x40,0x6e,0x61,0x6d,0x65,0x49,0x22,0x0a,0x49,0x74,0x65,0x6d,0x31,0x06,0x3a,0x06,0x45,0x54,0x3a,0x0b,0x40,0x70,0x69,0x74,0x63,0x68,0x69,0x69,0x3a,0x0c,0x40,0x76,0x6f,0x6c,0x75,0x6d,0x65,0x69,0x55))
  ChangeSelfSwitch("A",0)
  ChangeInventory_Item(67,0,0,1)
  0()
 PAGE   2
  // condition: self-switch A is ON
  0()



EVENT   62
 PAGE   1
  ShowMessageFace("",0,0,2,1)
  ShowMessage("\\n<Priest>Welcome to the Empty Lot Church. What can I do for you?")
  ShowChoices(strings("Pray","Never mind"),2)
  IfPlayerPicksChoice(0,null)
   ChangeVariable(1002,1002,0,0,5)
   ShowMessageFace("",0,0,2,2)
   ShowMessage("\\n<Priest>Well then, let us pray to Ilias. ...there, you should feel a bond drawing you to this place.")
   ShowMessageFace("",0,0,2,3)
   ShowMessage("\\n<Priest>If something were to happen to you on your journey, the bond should lead you back here. May Ilias watch over you...")
   0()
  IfPlayerPicksChoice(1,null)
   ShowMessageFace("",0,0,2,4)
   ShowMessage("\\n<Priest>May Ilias watch over you...")
   0()
  404()
  0()



EVENT   63
 PAGE   1
  ShowMessageFace("",0,0,2,1)
  ShowMessage("\\n<Youth>Haaa, haaa... Don's house... Aaah, Don... Haaaa...")
  355("actor_label_jump")
  EndEventProcessing()
  DefineLabel("74")
  ShowMessageFace("usagi_fc1",2,0,2,2)
  ShowMessage("\\n<Barnny>She has stalkers? Scary...")
  EndEventProcessing()
  0()



EVENT   64
 PAGE   1
  If(1,1004,0,5,2)
   ShowMessageFace("",0,0,2,1)
   ShowMessage("\\n<Middle-Aged Man>There's a fortified building directly east of the Don's house. She seems to walk over there pretty often too.")
   ShowMessageFace("",0,0,2,2)
   ShowMessage("\\n<Middle-Aged Man>I bet she's doing something in secret that she doesn't want anyone to see. Maybe some extreme form of masturbation?")
   ShowMessageFace("",0,0,2,3)
   ShowMessage("\\n<Middle-Aged Man>I'm getting horny just imagining it... Haaa... Unnngh...")
   EndEventProcessing()
   0()
  EndIf()
  If(1,1004,0,6,0)
   ShowMessageFace("",0,0,2,4)
   ShowMessage("\\n<Middle-Aged Man>After everything that happened, the Don is selling items from her tent like normal. She's an honest merchant this time though.")
   ShowMessageFace("",0,0,2,5)
   ShowMessage("\\n<Middle-Aged Man>Well... One of the items is a [Fun Ticket]. What kind of fun are you buying...")
   ShowMessageFace("",0,0,2,6)
   ShowMessage("\\n<Middle-Aged Man>I'm getting horny just imagining it... Haaa... Unnngh...")
   EndEventProcessing()
   0()
  EndIf()
  0()



EVENT   61
 PAGE   1
  ShowMessageFace("",0,0,2,1)
  ShowMessage("\\n<Youth>Ilias is just a lie told by old people, don't you think? Supposedly she used to appear before us, but that's nothing but superstition.")
  If(0,5,0)
   ShowMessageFace("iriasu_fc4",0,0,2,2)
   ShowMessage("\\n<Ilias>I'm writing your name down in my little book. I do hope you're looking forward to your judgment day.")
   0()
  EndIf()
  0()



EVENT   65
 PAGE   1
  ShowMessageFace("",0,0,2,1)
  ShowMessage("\\n<Ruffian>I have some very important information regarding Don Dahlia. 15G, how about it?")
  ShowChoices(strings("Pay 15G","Don't pay"),2)
  IfPlayerPicksChoice(0,null)
   If(7,15,0)
    125(1,0,15)
    ShowMessageFace("",0,0,2,2)
    ShowMessage("\\n<Ruffian>Heh heh, thanks. Now let me tell you the Don's big secret...")
    ShowMessageFace("",0,0,2,3)
    ShowMessage("\\n<Ruffian>Don Dahlia... sleeps naked! Hahaha, isn't that something!")
    355("actor_label_jump")
    EndEventProcessing()
    DefineLabel("70")
    ShowMessageFace("nezumi_fc1",0,0,2,4)
    ShowMessage("\\n<Ratty>This Don person has no clothes? She's even poorer than me...")
    EndEventProcessing()
    DefineLabel("71")
    ShowMessageFace("okami_fc1",0,0,2,5)
    ShowMessage("\\n<Amara>Aah! I sleep naked too!")
    EndEventProcessing()
    0()
   Else()
    ShowMessageFace("",0,0,2,6)
    ShowMessage("\\n<Ruffian>Hey now, you ain't got the cash.")
    EndEventProcessing()
    0()
   EndIf()
   0()
  IfPlayerPicksChoice(1,null)
   ShowMessageFace("",0,0,2,7)
   ShowMessage("\\n<Ruffian>Your loss, buddy. You won't learn anything in this town without greasing the right palms first.")
   EndEventProcessing()
   0()
  404()
  0()



EVENT   67
 PAGE   1
  ShowMessageFace("",0,0,2,1)
  ShowMessage("\\n<Informant>You're looking for info on smuggling? That'll be 20G.")
  ShowChoices(strings("Pay 20G","Don't pay"),2)
  IfPlayerPicksChoice(0,null)
   If(7,20,0)
    125(1,0,20)
    ShowMessageFace("",0,0,2,2)
    ShowMessage("\\n<Informant>All right, I'll tell you what I know. It's definitely true that Phoenix Tails are being smuggled in this town.")
    ShowMessageFace("",0,0,2,3)
    ShowMessage("\\n<Informant>...and that's all I know. What? You want more? I'm still investigating.")
    EndEventProcessing()
    0()
   Else()
    ShowMessageFace("",0,0,2,4)
    ShowMessage("\\n<Informant>Don't look like you have enough on you.")
    EndEventProcessing()
    0()
   EndIf()
   0()
  IfPlayerPicksChoice(1,null)
   ShowMessageFace("",0,0,2,5)
   ShowMessage("\\n<Informant>Please leave me alone then...")
   EndEventProcessing()
   0()
  404()
  0()



EVENT   60
 PAGE   1
  If(1,1004,0,5,2)
   ShowMessageFace("",0,0,2,1)
   ShowMessage("\\n<Youth>If you're looking for Phoenix Tails, head to the tent just north.")
   ShowMessageFace("",0,0,2,2)
   ShowMessage("\\n<Youth>If you just show up without anyone knowing who you are, you won't be able to buy anything though.")
   EndEventProcessing()
   0()
  EndIf()
  If(1,1004,0,6,0)
   ShowMessageFace("",0,0,2,3)
   ShowMessage("\\n<Youth>I heard the Don's enterprise was shut down by some random travelers. Man, I didn't even think that was possible. Crazy people...")
   EndEventProcessing()
   0()
  EndIf()
  0()



EVENT   59
 PAGE   1
  ShowMessageFace("",0,0,2,1)
  ShowMessage("\\n<Traveling Warrior>It's a good idea to keep a few of each type of equipment on hand in case you change jobs and can't use your current stuff anymore.")
  0()



EVENT   52
 PAGE   1
  ShowMessageFace("",0,0,2,1)
  ShowMessage("\\n<Thief>Don't forget that you restore 2SP when you defend. It can come in handy.")
  355("actor_label_jump")
  EndEventProcessing()
  DefineLabel("62")
  ShowMessageFace("gob_fc1",0,0,2,2)
  ShowMessage("\\n<Gob>When a power-type like me runs out of SP, it might be best to defend to quickly build it back up.")
  EndEventProcessing()
  0()



EVENT   2
 PAGE   1
  250(bytes(0x04,0x08,0x6f,0x3a,0x0c,0x52,0x50,0x47,0x3a,0x3a,0x53,0x45,0x08,0x3a,0x0a,0x40,0x6e,0x61,0x6d,0x65,0x49,0x22,0x09,0x4d,0x6f,0x76,0x65,0x06,0x3a,0x06,0x45,0x54,0x3a,0x0b,0x40,0x70,0x69,0x74,0x63,0x68,0x69,0x69,0x3a,0x0c,0x40,0x76,0x6f,0x6c,0x75,0x6d,0x65,0x69,0x55))
  TeleportPlayer(0,2,236,340,2,0)
  0()



EVENT   3
 PAGE   1
  250(bytes(0x04,0x08,0x6f,0x3a,0x0c,0x52,0x50,0x47,0x3a,0x3a,0x53,0x45,0x08,0x3a,0x0a,0x40,0x6e,0x61,0x6d,0x65,0x49,0x22,0x09,0x4d,0x6f,0x76,0x65,0x06,0x3a,0x06,0x45,0x54,0x3a,0x0b,0x40,0x70,0x69,0x74,0x63,0x68,0x69,0x69,0x3a,0x0c,0x40,0x76,0x6f,0x6c,0x75,0x6d,0x65,0x69,0x55))
  TeleportPlayer(0,2,236,340,2,0)
  0()



EVENT   4
 PAGE   1
  250(bytes(0x04,0x08,0x6f,0x3a,0x0c,0x52,0x50,0x47,0x3a,0x3a,0x53,0x45,0x08,0x3a,0x0a,0x40,0x6e,0x61,0x6d,0x65,0x49,0x22,0x09,0x4d,0x6f,0x76,0x65,0x06,0x3a,0x06,0x45,0x54,0x3a,0x0b,0x40,0x70,0x69,0x74,0x63,0x68,0x69,0x69,0x3a,0x0c,0x40,0x76,0x6f,0x6c,0x75,0x6d,0x65,0x69,0x55))
  TeleportPlayer(0,2,236,340,2,0)
  0()



EVENT   5
 PAGE   1
  250(bytes(0x04,0x08,0x6f,0x3a,0x0c,0x52,0x50,0x47,0x3a,0x3a,0x53,0x45,0x08,0x3a,0x0a,0x40,0x6e,0x61,0x6d,0x65,0x49,0x22,0x09,0x4d,0x6f,0x76,0x65,0x06,0x3a,0x06,0x45,0x54,0x3a,0x0b,0x40,0x70,0x69,0x74,0x63,0x68,0x69,0x69,0x3a,0x0c,0x40,0x76,0x6f,0x6c,0x75,0x6d,0x65,0x69,0x55))
  TeleportPlayer(0,2,236,340,2,0)
  0()



EVENT   6
 PAGE   1
  250(bytes(0x04,0x08,0x6f,0x3a,0x0c,0x52,0x50,0x47,0x3a,0x3a,0x53,0x45,0x08,0x3a,0x0a,0x40,0x6e,0x61,0x6d,0x65,0x49,0x22,0x09,0x4d,0x6f,0x76,0x65,0x06,0x3a,0x06,0x45,0x54,0x3a,0x0b,0x40,0x70,0x69,0x74,0x63,0x68,0x69,0x69,0x3a,0x0c,0x40,0x76,0x6f,0x6c,0x75,0x6d,0x65,0x69,0x55))
  TeleportPlayer(0,2,236,340,2,0)
  0()



EVENT   7
 PAGE   1
  250(bytes(0x04,0x08,0x6f,0x3a,0x0c,0x52,0x50,0x47,0x3a,0x3a,0x53,0x45,0x08,0x3a,0x0a,0x40,0x6e,0x61,0x6d,0x65,0x49,0x22,0x09,0x4d,0x6f,0x76,0x65,0x06,0x3a,0x06,0x45,0x54,0x3a,0x0b,0x40,0x70,0x69,0x74,0x63,0x68,0x69,0x69,0x3a,0x0c,0x40,0x76,0x6f,0x6c,0x75,0x6d,0x65,0x69,0x55))
  TeleportPlayer(0,2,236,340,2,0)
  0()



EVENT   8
 PAGE   1
  250(bytes(0x04,0x08,0x6f,0x3a,0x0c,0x52,0x50,0x47,0x3a,0x3a,0x53,0x45,0x08,0x3a,0x0a,0x40,0x6e,0x61,0x6d,0x65,0x49,0x22,0x09,0x4d,0x6f,0x76,0x65,0x06,0x3a,0x06,0x45,0x54,0x3a,0x0b,0x40,0x70,0x69,0x74,0x63,0x68,0x69,0x69,0x3a,0x0c,0x40,0x76,0x6f,0x6c,0x75,0x6d,0x65,0x69,0x55))
  TeleportPlayer(0,2,236,340,2,0)
  0()



EVENT   9
 PAGE   1
  250(bytes(0x04,0x08,0x6f,0x3a,0x0c,0x52,0x50,0x47,0x3a,0x3a,0x53,0x45,0x08,0x3a,0x0a,0x40,0x6e,0x61,0x6d,0x65,0x49,0x22,0x09,0x4d,0x6f,0x76,0x65,0x06,0x3a,0x06,0x45,0x54,0x3a,0x0b,0x40,0x70,0x69,0x74,0x63,0x68,0x69,0x69,0x3a,0x0c,0x40,0x76,0x6f,0x6c,0x75,0x6d,0x65,0x69,0x55))
  TeleportPlayer(0,2,236,340,2,0)
  0()



EVENT   10
 PAGE   1
  250(bytes(0x04,0x08,0x6f,0x3a,0x0c,0x52,0x50,0x47,0x3a,0x3a,0x53,0x45,0x08,0x3a,0x0a,0x40,0x6e,0x61,0x6d,0x65,0x49,0x22,0x09,0x4d,0x6f,0x76,0x65,0x06,0x3a,0x06,0x45,0x54,0x3a,0x0b,0x40,0x70,0x69,0x74,0x63,0x68,0x69,0x69,0x3a,0x0c,0x40,0x76,0x6f,0x6c,0x75,0x6d,0x65,0x69,0x55))
  TeleportPlayer(0,2,236,340,2,0)
  0()



EVENT   11
 PAGE   1
  250(bytes(0x04,0x08,0x6f,0x3a,0x0c,0x52,0x50,0x47,0x3a,0x3a,0x53,0x45,0x08,0x3a,0x0a,0x40,0x6e,0x61,0x6d,0x65,0x49,0x22,0x09,0x4d,0x6f,0x76,0x65,0x06,0x3a,0x06,0x45,0x54,0x3a,0x0b,0x40,0x70,0x69,0x74,0x63,0x68,0x69,0x69,0x3a,0x0c,0x40,0x76,0x6f,0x6c,0x75,0x6d,0x65,0x69,0x55))
  TeleportPlayer(0,2,236,340,2,0)
  0()



EVENT   12
 PAGE   1
  250(bytes(0x04,0x08,0x6f,0x3a,0x0c,0x52,0x50,0x47,0x3a,0x3a,0x53,0x45,0x08,0x3a,0x0a,0x40,0x6e,0x61,0x6d,0x65,0x49,0x22,0x09,0x4d,0x6f,0x76,0x65,0x06,0x3a,0x06,0x45,0x54,0x3a,0x0b,0x40,0x70,0x69,0x74,0x63,0x68,0x69,0x69,0x3a,0x0c,0x40,0x76,0x6f,0x6c,0x75,0x6d,0x65,0x69,0x55))
  TeleportPlayer(0,2,236,340,2,0)
  0()



EVENT   13
 PAGE   1
  250(bytes(0x04,0x08,0x6f,0x3a,0x0c,0x52,0x50,0x47,0x3a,0x3a,0x53,0x45,0x08,0x3a,0x0a,0x40,0x6e,0x61,0x6d,0x65,0x49,0x22,0x09,0x4d,0x6f,0x76,0x65,0x06,0x3a,0x06,0x45,0x54,0x3a,0x0b,0x40,0x70,0x69,0x74,0x63,0x68,0x69,0x69,0x3a,0x0c,0x40,0x76,0x6f,0x6c,0x75,0x6d,0x65,0x69,0x55))
  TeleportPlayer(0,2,236,340,2,0)
  0()



EVENT   14
 PAGE   1
  250(bytes(0x04,0x08,0x6f,0x3a,0x0c,0x52,0x50,0x47,0x3a,0x3a,0x53,0x45,0x08,0x3a,0x0a,0x40,0x6e,0x61,0x6d,0x65,0x49,0x22,0x09,0x4d,0x6f,0x76,0x65,0x06,0x3a,0x06,0x45,0x54,0x3a,0x0b,0x40,0x70,0x69,0x74,0x63,0x68,0x69,0x69,0x3a,0x0c,0x40,0x76,0x6f,0x6c,0x75,0x6d,0x65,0x69,0x55))
  TeleportPlayer(0,2,236,340,2,0)
  0()



EVENT   15
 PAGE   1
  250(bytes(0x04,0x08,0x6f,0x3a,0x0c,0x52,0x50,0x47,0x3a,0x3a,0x53,0x45,0x08,0x3a,0x0a,0x40,0x6e,0x61,0x6d,0x65,0x49,0x22,0x09,0x4d,0x6f,0x76,0x65,0x06,0x3a,0x06,0x45,0x54,0x3a,0x0b,0x40,0x70,0x69,0x74,0x63,0x68,0x69,0x69,0x3a,0x0c,0x40,0x76,0x6f,0x6c,0x75,0x6d,0x65,0x69,0x55))
  TeleportPlayer(0,2,236,340,2,0)
  0()



EVENT   16
 PAGE   1
  250(bytes(0x04,0x08,0x6f,0x3a,0x0c,0x52,0x50,0x47,0x3a,0x3a,0x53,0x45,0x08,0x3a,0x0a,0x40,0x6e,0x61,0x6d,0x65,0x49,0x22,0x09,0x4d,0x6f,0x76,0x65,0x06,0x3a,0x06,0x45,0x54,0x3a,0x0b,0x40,0x70,0x69,0x74,0x63,0x68,0x69,0x69,0x3a,0x0c,0x40,0x76,0x6f,0x6c,0x75,0x6d,0x65,0x69,0x55))
  TeleportPlayer(0,2,236,340,2,0)
  0()



EVENT   17
 PAGE   1
  250(bytes(0x04,0x08,0x6f,0x3a,0x0c,0x52,0x50,0x47,0x3a,0x3a,0x53,0x45,0x08,0x3a,0x0a,0x40,0x6e,0x61,0x6d,0x65,0x49,0x22,0x09,0x4d,0x6f,0x76,0x65,0x06,0x3a,0x06,0x45,0x54,0x3a,0x0b,0x40,0x70,0x69,0x74,0x63,0x68,0x69,0x69,0x3a,0x0c,0x40,0x76,0x6f,0x6c,0x75,0x6d,0x65,0x69,0x55))
  TeleportPlayer(0,2,236,340,2,0)
  0()



EVENT   18
 PAGE   1
  250(bytes(0x04,0x08,0x6f,0x3a,0x0c,0x52,0x50,0x47,0x3a,0x3a,0x53,0x45,0x08,0x3a,0x0a,0x40,0x6e,0x61,0x6d,0x65,0x49,0x22,0x09,0x4d,0x6f,0x76,0x65,0x06,0x3a,0x06,0x45,0x54,0x3a,0x0b,0x40,0x70,0x69,0x74,0x63,0x68,0x69,0x69,0x3a,0x0c,0x40,0x76,0x6f,0x6c,0x75,0x6d,0x65,0x69,0x55))
  TeleportPlayer(0,2,236,340,2,0)
  0()



EVENT   19
 PAGE   1
  250(bytes(0x04,0x08,0x6f,0x3a,0x0c,0x52,0x50,0x47,0x3a,0x3a,0x53,0x45,0x08,0x3a,0x0a,0x40,0x6e,0x61,0x6d,0x65,0x49,0x22,0x09,0x4d,0x6f,0x76,0x65,0x06,0x3a,0x06,0x45,0x54,0x3a,0x0b,0x40,0x70,0x69,0x74,0x63,0x68,0x69,0x69,0x3a,0x0c,0x40,0x76,0x6f,0x6c,0x75,0x6d,0x65,0x69,0x55))
  TeleportPlayer(0,2,236,340,2,0)
  0()



EVENT   20
 PAGE   1
  250(bytes(0x04,0x08,0x6f,0x3a,0x0c,0x52,0x50,0x47,0x3a,0x3a,0x53,0x45,0x08,0x3a,0x0a,0x40,0x6e,0x61,0x6d,0x65,0x49,0x22,0x09,0x4d,0x6f,0x76,0x65,0x06,0x3a,0x06,0x45,0x54,0x3a,0x0b,0x40,0x70,0x69,0x74,0x63,0x68,0x69,0x69,0x3a,0x0c,0x40,0x76,0x6f,0x6c,0x75,0x6d,0x65,0x69,0x55))
  TeleportPlayer(0,2,236,340,2,0)
  0()



EVENT   21
 PAGE   1
  250(bytes(0x04,0x08,0x6f,0x3a,0x0c,0x52,0x50,0x47,0x3a,0x3a,0x53,0x45,0x08,0x3a,0x0a,0x40,0x6e,0x61,0x6d,0x65,0x49,0x22,0x09,0x4d,0x6f,0x76,0x65,0x06,0x3a,0x06,0x45,0x54,0x3a,0x0b,0x40,0x70,0x69,0x74,0x63,0x68,0x69,0x69,0x3a,0x0c,0x40,0x76,0x6f,0x6c,0x75,0x6d,0x65,0x69,0x55))
  TeleportPlayer(0,2,236,340,2,0)
  0()



EVENT   22
 PAGE   1
  250(bytes(0x04,0x08,0x6f,0x3a,0x0c,0x52,0x50,0x47,0x3a,0x3a,0x53,0x45,0x08,0x3a,0x0a,0x40,0x6e,0x61,0x6d,0x65,0x49,0x22,0x09,0x4d,0x6f,0x76,0x65,0x06,0x3a,0x06,0x45,0x54,0x3a,0x0b,0x40,0x70,0x69,0x74,0x63,0x68,0x69,0x69,0x3a,0x0c,0x40,0x76,0x6f,0x6c,0x75,0x6d,0x65,0x69,0x55))
  TeleportPlayer(0,2,236,340,2,0)
  0()



EVENT   23
 PAGE   1
  250(bytes(0x04,0x08,0x6f,0x3a,0x0c,0x52,0x50,0x47,0x3a,0x3a,0x53,0x45,0x08,0x3a,0x0a,0x40,0x6e,0x61,0x6d,0x65,0x49,0x22,0x09,0x4d,0x6f,0x76,0x65,0x06,0x3a,0x06,0x45,0x54,0x3a,0x0b,0x40,0x70,0x69,0x74,0x63,0x68,0x69,0x69,0x3a,0x0c,0x40,0x76,0x6f,0x6c,0x75,0x6d,0x65,0x69,0x55))
  TeleportPlayer(0,2,236,340,2,0)
  0()



EVENT   24
 PAGE   1
  250(bytes(0x04,0x08,0x6f,0x3a,0x0c,0x52,0x50,0x47,0x3a,0x3a,0x53,0x45,0x08,0x3a,0x0a,0x40,0x6e,0x61,0x6d,0x65,0x49,0x22,0x09,0x4d,0x6f,0x76,0x65,0x06,0x3a,0x06,0x45,0x54,0x3a,0x0b,0x40,0x70,0x69,0x74,0x63,0x68,0x69,0x69,0x3a,0x0c,0x40,0x76,0x6f,0x6c,0x75,0x6d,0x65,0x69,0x55))
  TeleportPlayer(0,2,236,340,2,0)
  0()



EVENT   25
 PAGE   1
  250(bytes(0x04,0x08,0x6f,0x3a,0x0c,0x52,0x50,0x47,0x3a,0x3a,0x53,0x45,0x08,0x3a,0x0a,0x40,0x6e,0x61,0x6d,0x65,0x49,0x22,0x09,0x4d,0x6f,0x76,0x65,0x06,0x3a,0x06,0x45,0x54,0x3a,0x0b,0x40,0x70,0x69,0x74,0x63,0x68,0x69,0x69,0x3a,0x0c,0x40,0x76,0x6f,0x6c,0x75,0x6d,0x65,0x69,0x55))
  TeleportPlayer(0,2,236,340,2,0)
  0()



EVENT   26
 PAGE   1
  250(bytes(0x04,0x08,0x6f,0x3a,0x0c,0x52,0x50,0x47,0x3a,0x3a,0x53,0x45,0x08,0x3a,0x0a,0x40,0x6e,0x61,0x6d,0x65,0x49,0x22,0x09,0x4d,0x6f,0x76,0x65,0x06,0x3a,0x06,0x45,0x54,0x3a,0x0b,0x40,0x70,0x69,0x74,0x63,0x68,0x69,0x69,0x3a,0x0c,0x40,0x76,0x6f,0x6c,0x75,0x6d,0x65,0x69,0x55))
  TeleportPlayer(0,2,236,340,2,0)
  0()



EVENT   27
 PAGE   1
  250(bytes(0x04,0x08,0x6f,0x3a,0x0c,0x52,0x50,0x47,0x3a,0x3a,0x53,0x45,0x08,0x3a,0x0a,0x40,0x6e,0x61,0x6d,0x65,0x49,0x22,0x09,0x4d,0x6f,0x76,0x65,0x06,0x3a,0x06,0x45,0x54,0x3a,0x0b,0x40,0x70,0x69,0x74,0x63,0x68,0x69,0x69,0x3a,0x0c,0x40,0x76,0x6f,0x6c,0x75,0x6d,0x65,0x69,0x55))
  TeleportPlayer(0,2,236,340,2,0)
  0()



EVENT   30
 PAGE   1
  250(bytes(0x04,0x08,0x6f,0x3a,0x0c,0x52,0x50,0x47,0x3a,0x3a,0x53,0x45,0x08,0x3a,0x0a,0x40,0x6e,0x61,0x6d,0x65,0x49,0x22,0x09,0x4d,0x6f,0x76,0x65,0x06,0x3a,0x06,0x45,0x54,0x3a,0x0b,0x40,0x70,0x69,0x74,0x63,0x68,0x69,0x69,0x3a,0x0c,0x40,0x76,0x6f,0x6c,0x75,0x6d,0x65,0x69,0x55))
  TeleportPlayer(0,2,236,340,2,0)
  0()



EVENT   31
 PAGE   1
  250(bytes(0x04,0x08,0x6f,0x3a,0x0c,0x52,0x50,0x47,0x3a,0x3a,0x53,0x45,0x08,0x3a,0x0a,0x40,0x6e,0x61,0x6d,0x65,0x49,0x22,0x09,0x4d,0x6f,0x76,0x65,0x06,0x3a,0x06,0x45,0x54,0x3a,0x0b,0x40,0x70,0x69,0x74,0x63,0x68,0x69,0x69,0x3a,0x0c,0x40,0x76,0x6f,0x6c,0x75,0x6d,0x65,0x69,0x55))
  TeleportPlayer(0,2,236,340,2,0)
  0()



EVENT   28
 PAGE   1
  250(bytes(0x04,0x08,0x6f,0x3a,0x0c,0x52,0x50,0x47,0x3a,0x3a,0x53,0x45,0x08,0x3a,0x0a,0x40,0x6e,0x61,0x6d,0x65,0x49,0x22,0x09,0x4d,0x6f,0x76,0x65,0x06,0x3a,0x06,0x45,0x54,0x3a,0x0b,0x40,0x70,0x69,0x74,0x63,0x68,0x69,0x69,0x3a,0x0c,0x40,0x76,0x6f,0x6c,0x75,0x6d,0x65,0x69,0x55))
  TeleportPlayer(0,2,236,340,2,0)
  0()



EVENT   29
 PAGE   1
  250(bytes(0x04,0x08,0x6f,0x3a,0x0c,0x52,0x50,0x47,0x3a,0x3a,0x53,0x45,0x08,0x3a,0x0a,0x40,0x6e,0x61,0x6d,0x65,0x49,0x22,0x09,0x4d,0x6f,0x76,0x65,0x06,0x3a,0x06,0x45,0x54,0x3a,0x0b,0x40,0x70,0x69,0x74,0x63,0x68,0x69,0x69,0x3a,0x0c,0x40,0x76,0x6f,0x6c,0x75,0x6d,0x65,0x69,0x55))
  TeleportPlayer(0,2,236,340,2,0)
  0()



EVENT   32
 PAGE   1
  250(bytes(0x04,0x08,0x6f,0x3a,0x0c,0x52,0x50,0x47,0x3a,0x3a,0x53,0x45,0x08,0x3a,0x0a,0x40,0x6e,0x61,0x6d,0x65,0x49,0x22,0x09,0x4d,0x6f,0x76,0x65,0x06,0x3a,0x06,0x45,0x54,0x3a,0x0b,0x40,0x70,0x69,0x74,0x63,0x68,0x69,0x69,0x3a,0x0c,0x40,0x76,0x6f,0x6c,0x75,0x6d,0x65,0x69,0x55))
  TeleportPlayer(0,2,236,340,2,0)
  0()



EVENT   33
 PAGE   1
  250(bytes(0x04,0x08,0x6f,0x3a,0x0c,0x52,0x50,0x47,0x3a,0x3a,0x53,0x45,0x08,0x3a,0x0a,0x40,0x6e,0x61,0x6d,0x65,0x49,0x22,0x09,0x4d,0x6f,0x76,0x65,0x06,0x3a,0x06,0x45,0x54,0x3a,0x0b,0x40,0x70,0x69,0x74,0x63,0x68,0x69,0x69,0x3a,0x0c,0x40,0x76,0x6f,0x6c,0x75,0x6d,0x65,0x69,0x55))
  TeleportPlayer(0,2,236,340,2,0)
  0()



EVENT   34
 PAGE   1
  250(bytes(0x04,0x08,0x6f,0x3a,0x0c,0x52,0x50,0x47,0x3a,0x3a,0x53,0x45,0x08,0x3a,0x0a,0x40,0x6e,0x61,0x6d,0x65,0x49,0x22,0x09,0x4d,0x6f,0x76,0x65,0x06,0x3a,0x06,0x45,0x54,0x3a,0x0b,0x40,0x70,0x69,0x74,0x63,0x68,0x69,0x69,0x3a,0x0c,0x40,0x76,0x6f,0x6c,0x75,0x6d,0x65,0x69,0x55))
  TeleportPlayer(0,2,236,340,2,0)
  0()



EVENT   35
 PAGE   1
  250(bytes(0x04,0x08,0x6f,0x3a,0x0c,0x52,0x50,0x47,0x3a,0x3a,0x53,0x45,0x08,0x3a,0x0a,0x40,0x6e,0x61,0x6d,0x65,0x49,0x22,0x09,0x4d,0x6f,0x76,0x65,0x06,0x3a,0x06,0x45,0x54,0x3a,0x0b,0x40,0x70,0x69,0x74,0x63,0x68,0x69,0x69,0x3a,0x0c,0x40,0x76,0x6f,0x6c,0x75,0x6d,0x65,0x69,0x55))
  TeleportPlayer(0,2,236,340,2,0)
  0()



EVENT   36
 PAGE   1
  250(bytes(0x04,0x08,0x6f,0x3a,0x0c,0x52,0x50,0x47,0x3a,0x3a,0x53,0x45,0x08,0x3a,0x0a,0x40,0x6e,0x61,0x6d,0x65,0x49,0x22,0x09,0x4d,0x6f,0x76,0x65,0x06,0x3a,0x06,0x45,0x54,0x3a,0x0b,0x40,0x70,0x69,0x74,0x63,0x68,0x69,0x69,0x3a,0x0c,0x40,0x76,0x6f,0x6c,0x75,0x6d,0x65,0x69,0x55))
  TeleportPlayer(0,2,236,340,2,0)
  0()



EVENT   53
 PAGE   1
  ShowMessageFace("",0,0,2,1)
  ShowMessage("\\n<Youth>I, I can't come anymore... I thought it'd be so easy too...")
  0()



EVENT   68
 PAGE   1
  ShowMessageFace("",0,0,2,1)
  ShowMessage("\\n<Man>Im-impossible...")
  0()



EVENT   69
 PAGE   1
  ShowMessageFace("",0,0,2,1)
  ShowMessage("\\n<Thief>Having a thief in your party is all sorts of useful!")
  ShowMessageFace("",0,0,2,2)
  ShowMessage("\\n<Thief>First, you can avoid surprise attacks. In fact, a thief can even raise your chances of a preemptive strike!")
  ShowMessageFace("",0,0,2,3)
  ShowMessage("\\n<Thief>In addition, we can steal items from enemies and open locked chests at higher levels.")
  ShowMessageFace("",0,0,2,4)
  ShowMessage("\\n<Thief>Pretty awesome, right? The downside is that we aren't so great at fighting.")
  355("actor_label_jump")
  EndEventProcessing()
  DefineLabel("53")
  ShowMessageFace("slime_fc1",0,0,2,5)
  ShowMessage("\\n<Lime>I may be weak, but I'm happy being useful just for being around! ♪")
  EndEventProcessing()
  0()



EVENT   70
 PAGE   1
  ShowMessageFace("",0,0,2,1)
  ShowMessage("\\n<Merchant>Merchants excel at the use of items. For example, when a merchant uses a recovery item, it will heal for slightly more than usual.")
  ShowMessageFace("",0,0,2,2)
  ShowMessage("\\n<Merchant>I've heard there are advanced jobs that specialize even further in item use, but I don't know what they do.")
  355("actor_label_jump")
  EndEventProcessing()
  DefineLabel("66")
  ShowMessageFace("vgirl_fc1",0,0,2,3)
  ShowMessage("\\n<Vanilla>Naturally I'm an expert on items! Kukuku, another reason for you to keep me around...")
  EndEventProcessing()
  0()



EVENT   71
 PAGE   1
  ShowMessageFace("",0,0,2,1)
  ShowMessage("\\n<Traveling Warrior>Some monsters have exceptionally high evasion, like Beasts, Succubi, Harpies, and Fairies.")
  ShowMessageFace("",0,0,2,2)
  ShowMessage("\\n<Traveling Warrior>Skills have high hit rates so they're pretty effective, but Harpies and Fairies can avoid those too.")
  ShowMessageFace("",0,0,2,3)
  ShowMessage("\\n<Traveling Warrior>For them, bows are your best bet. Their hit rate is high so you can take them out easily.")
  355("actor_label_jump")
  EndEventProcessing()
  DefineLabel("74")
  ShowMessageFace("usagi_fc1",0,0,2,4)
  ShowMessage("\\n<Barnny>Hehe, let them to me. My arrows always hit their mark. ♪")
  EndEventProcessing()
  0()



EVENT   72
 PAGE   1
  // condition: switch 1080 is ON
  ShowMessageFace("orc_fc1",0,0,2,1)
  ShowMessage("\\n<Hip>I came to trash this place, but I don't think anyone would notice if I did. I ended up staring at this lake instead...")
  ShowMessageFace("",0,0,2,2)
  ShowMessage("Looks like my orc companion is terrorizing people. Oh well, she probably won't cause any real trouble.")
  0()
 PAGE   2
  // condition: party contains actor #80
  0()



EVENT   73
 PAGE   1
  // condition: switch 1540 is ON
  241(bytes(0x04,0x08,0x6f,0x3a,0x0d,0x52,0x50,0x47,0x3a,0x3a,0x42,0x47,0x4d,0x08,0x3a,0x0a,0x40,0x6e,0x61,0x6d,0x65,0x49,0x22,0x0a,0x61,0x6d,0x69,0x72,0x61,0x06,0x3a,0x06,0x45,0x54,0x3a,0x0c,0x40,0x76,0x6f,0x6c,0x75,0x6d,0x65,0x69,0x69,0x3a,0x0b,0x40,0x70,0x69,0x74,0x63,0x68,0x69,0x69))
  If(2,"A",1)
   ChangeSelfSwitch("A",0)
   RunCommonEvent(322)
   0()
  Else()
   ShowMessageFace("amira_fc1",0,0,2,1)
   ShowMessage("\\n<Amira>You've found me here. Keep searching for me...")
   0()
  EndIf()
  241(bytes(0x04,0x08,0x6f,0x3a,0x0d,0x52,0x50,0x47,0x3a,0x3a,0x42,0x47,0x4d,0x08,0x3a,0x0a,0x40,0x6e,0x61,0x6d,0x65,0x49,0x22,0x0a,0x6d,0x75,0x72,0x61,0x33,0x06,0x3a,0x06,0x45,0x54,0x3a,0x0c,0x40,0x76,0x6f,0x6c,0x75,0x6d,0x65,0x69,0x69,0x3a,0x0b,0x40,0x70,0x69,0x74,0x63,0x68,0x69,0x69))
  EndEventProcessing()
  0()
 PAGE   2
  // condition: party contains actor #540
  0()



EVENT   66
 PAGE   1
  If(1,1004,0,5,2)
   ShowMessageFace("",0,0,2,1)
   ShowMessage("\\n<Guard>Even we guards can't do anything about Don Dahlia. We have our hands full just making sure that nothing major happens around here.")
   If(1,1004,0,0,0)
    EndEventProcessing()
    0()
   EndIf()
   ShowMessageFace("",0,0,2,2)
   ShowMessage("\\n<Guard>The illicit sale of items is a minor crime. Sorry, there isn't anything we can do to help.")
   EndEventProcessing()
   0()
  EndIf()
  If(1,1004,0,6,0)
   ShowMessageFace("",0,0,2,3)
   ShowMessage("\\n<Guard>The Don has stopped her illicit sales, but I doubt she'll lose any influence around here. We'll have to stay vigilant to keep the peace.")
   355("actor_label_jump")
   EndEventProcessing()
   DefineLabel("72")
   ShowMessageFace("phoenix_fc1",3,0,2,4)
   ShowMessage("\\n<Mini>The Don is scary... I wonder whose tail feathers she'll pull out next time.")
   EndEventProcessing()
   0()
  EndIf()
  0()



EVENT   48
 PAGE   1
  If(1,1004,0,5,2)
   ShowMessageFace("",0,0,2,1)
   ShowMessage("\\n<Youth>Don Dahlia is the undisputed boss of this town. You'd better not cross her if you know what's good for you.")
   If(1,1004,0,0,0)
    EndEventProcessing()
    0()
   EndIf()
   ShowChoices(strings("Ask about the sale of Phoenix Tails","Ask where she lives","Never mind"),3)
   IfPlayerPicksChoice(0,null)
    ShowMessageFace("",0,0,2,2)
    ShowMessage("\\n<Youth>So that's why you've come. You can buy 'em a lot cheaper here than in item shops.")
    0()
   IfPlayerPicksChoice(1,null)
    ShowMessageFace("",0,0,2,3)
    ShowMessage("\\n<Youth>Don Dahlia's house? It's right over there.")
    ScrollMap(6,8,5)
    ShowMessageFace("",0,0,2,4)
    ShowMessage("\\n<Youth>It's not guarded or even locked, but no one waltzes in there anyway. You know why?")
    ScrollMap(4,8,5)
    ShowMessageFace("",0,0,2,5)
    ShowMessage("\\n<Youth>Because everyone here is afraid of the Don and wouldn't dare cross her. You better not either.")
    0()
   IfPlayerPicksChoice(2,null)
    EndEventProcessing()
    0()
   404()
   0()
  EndIf()
  If(1,1004,0,6,0)
   ShowMessageFace("",0,0,2,6)
   ShowMessage("\\n<Youth>Phoenix Tails aren't being sold anymore, but Don Dahlia is still the boss.")
   355("actor_label_jump")
   EndEventProcessing()
   DefineLabel("72")
   ShowMessageFace("phoenix_fc1",3,0,2,7)
   ShowMessage("\\n<Mini>The Don is still holding on to power? She sure is tough...")
   EndEventProcessing()
   0()
  EndIf()
  0()
