﻿
DisplayName "Don・Father's Estate"



EVENT   45
 PAGE   1
  0()



EVENT   46
 PAGE   1
  0()



EVENT   49
 PAGE   1
  ChangeSwitch(11,11,1)
  250(bytes(0x04,0x08,0x6f,0x3a,0x0c,0x52,0x50,0x47,0x3a,0x3a,0x53,0x45,0x08,0x3a,0x0a,0x40,0x6e,0x61,0x6d,0x65,0x49,0x22,0x09,0x4d,0x6f,0x76,0x65,0x06,0x3a,0x06,0x45,0x54,0x3a,0x0b,0x40,0x70,0x69,0x74,0x63,0x68,0x69,0x69,0x3a,0x0c,0x40,0x76,0x6f,0x6c,0x75,0x6d,0x65,0x69,0x55))
  TeleportPlayer(0,358,73,11,0,0)
  0()



EVENT   51
 PAGE   1
  281(1)
  250(bytes(0x04,0x08,0x6f,0x3a,0x0c,0x52,0x50,0x47,0x3a,0x3a,0x53,0x45,0x08,0x3a,0x0a,0x40,0x6e,0x61,0x6d,0x65,0x49,0x22,0x09,0x4d,0x6f,0x76,0x65,0x06,0x3a,0x06,0x45,0x54,0x3a,0x0b,0x40,0x70,0x69,0x74,0x63,0x68,0x69,0x69,0x3a,0x0c,0x40,0x76,0x6f,0x6c,0x75,0x6d,0x65,0x69,0x55))
  TeleportPlayer(0,337,62,21,0,0)
  0()



EVENT   52
 PAGE   1
  281(1)
  250(bytes(0x04,0x08,0x6f,0x3a,0x0c,0x52,0x50,0x47,0x3a,0x3a,0x53,0x45,0x08,0x3a,0x0a,0x40,0x6e,0x61,0x6d,0x65,0x49,0x22,0x09,0x4d,0x6f,0x76,0x65,0x06,0x3a,0x06,0x45,0x54,0x3a,0x0b,0x40,0x70,0x69,0x74,0x63,0x68,0x69,0x69,0x3a,0x0c,0x40,0x76,0x6f,0x6c,0x75,0x6d,0x65,0x69,0x55))
  TeleportPlayer(0,337,63,21,0,0)
  0()



EVENT   50
 PAGE   1
  ChangeSwitch(11,11,1)
  250(bytes(0x04,0x08,0x6f,0x3a,0x0c,0x52,0x50,0x47,0x3a,0x3a,0x53,0x45,0x08,0x3a,0x0a,0x40,0x6e,0x61,0x6d,0x65,0x49,0x22,0x09,0x4d,0x6f,0x76,0x65,0x06,0x3a,0x06,0x45,0x54,0x3a,0x0b,0x40,0x70,0x69,0x74,0x63,0x68,0x69,0x69,0x3a,0x0c,0x40,0x76,0x6f,0x6c,0x75,0x6d,0x65,0x69,0x55))
  TeleportPlayer(0,358,74,11,0,0)
  0()



EVENT   240
 PAGE   1
  PictureDisplay(5,"80_merlin_st01",0,0,0,0,100,100,0,0)
  PictureMove(5,null,0,0,0,0,100,100,255,0,30,true)
  If(1,1033,0,0,0)
   ChangeVariable(1033,1033,0,0,1)
   ChangeSwitch(100,100,0)
   ShowMessageFace("merlin_fc1",0,0,2,1)
   ShowMessage("\\n<Merlin>お初、お目に掛かります。 わたくしが、ドン・ファーザーのマーリンでございます。")
   If(0,6,0)
    ShowMessageFace("sonia_fc3",2,0,2,2)
    ShowMessage("\\n<Sonya>すっごくジェントル！")
    0()
   Else()
    ShowMessageFace("ruka_fc1",0,0,2,3)
    ShowMessage("\\n<Luka>予想と……全然違う……")
    0()
   EndIf()
   ShowMessageFace("merlin_fc1",0,0,2,4)
   ShowMessage("\\n<Merlin>威圧や威嚇は配下の仕事。 そのような役目は、わたくしには無縁ゆえ……")
   If(0,4,0)
    ShowMessageFace("alice_fc5",0,0,2,5)
    ShowMessage("\\n<Alice>しかし、このサバサ地方に裏社会の親玉がいたとは…… あの前サバサ王の目を、よく逃れていたな。")
    0()
   EndIf()
   If(0,5,0)
    ShowMessageFace("iriasu_fc4",2,0,2,6)
    ShowMessage("\\n<Ilias>しかし、このサバサ地方にマフィアの帝王がいたとは…… あの前サバサ王の目を、よく逃れることができましたね。")
    0()
   EndIf()
   ShowMessageFace("merlin_fc1",0,0,2,7)
   ShowMessage("\\n<Merlin>コインに表と裏があるように…… 人間社会も、かくのようになっております。")
   ShowMessageFace("merlin_fc1",0,0,2,8)
   ShowMessage("\\n<Merlin>前サバサ王も、その事をよく分かっておられました。 光あるところに、必ず影は出来るものです……")
   ShowMessageFace("ruka_fc1",0,0,2,9)
   ShowMessage("\\n<Luka>前王が、マフィアをあえて放置したって事ですか……？")
   ShowMessageFace("merlin_fc1",0,0,2,10)
   ShowMessage("\\n<Merlin>いえいえ、前王の名誉に誓ってそこまでは申しませんが…… 悪党は、そう簡単に消えはしないものですよ。")
   ShowMessageFace("merlin_fc1",0,0,2,11)
   ShowMessage("\\n<Merlin>なにせ悪というのは、人間の根本に備わる基本感情。 あなたも、私も、みな大なり小なり抱えているもの。")
   ShowMessageFace("merlin_fc1",0,0,2,12)
   ShowMessage("\\n<Merlin>それを無理に社会から消し去ろうとすれば、 かえって大きなひずみをもたらす……それも前王はご存じで。")
   ShowMessageFace("merlin_fc1",0,0,2,13)
   ShowMessage("\\n<Merlin>そして、統制された悪より統制されてない悪の方が危険。 あの王は、社会というものをしっかり理解しておりました。")
   ShowMessageFace("merlin_fc1",0,0,2,14)
   ShowMessage("\\n<Merlin>まあ、あちらとしましては……下手に組織を潰して、 地下に潜られたら監視しにくいともお考えだったようですが。")
   ShowMessageFace("merlin_fc1",0,0,2,15)
   ShowMessage("\\n<Merlin>前王陛下……つくづく、惜しい人を亡くしましたね。 戦火が迫っている今こそ、お国に必要な方だったでしょうに。")
   If(4,529,0)
    ShowMessageFace("sara_fc1",4,0,2,16)
    ShowMessage("\\n<Sara>マフィアのボスに悼まれても、お父様は喜ばないわ……")
    0()
   EndIf()
   ShowMessageFace("merlin_fc1",0,0,2,17)
   ShowMessage("\\n<Merlin>おっと……旅人相手に、無駄話が過ぎましたね。 また寄って下さい、美味しいダージリンを御馳走しましょう。")
   PictureMove(5,null,0,0,0,0,100,100,0,0,30,true)
   PictureClear(5)
   EndEventProcessing()
   0()
  EndIf()
  If(1,1033,0,1,1)
   ShowMessageFace("merlin_fc1",0,0,2,18)
   ShowMessage("\\n<Merlin>よくぞお越し頂きました、旅の方。 よろしいのですか、わたくしのような者と何度も会って……")
   ShowMessageFace("merlin_fc1",0,0,2,19)
   ShowMessage("\\n<Merlin>わたくしは構いませんが、これでも当局に監視される身。 そちら様にも、迷惑が掛からないとは言えないかと……")
   PictureMove(5,null,0,0,0,0,100,100,0,0,30,true)
   PictureClear(5)
   EndEventProcessing()
   0()
  EndIf()
  0()



EVENT   241
 PAGE   1
  ShowMessageFace("",0,0,2,1)
  ShowMessage("\\n<Guard>通って良し。")
  0()



EVENT   242
 PAGE   1
  ShowMessageFace("",0,0,2,1)
  ShowMessage("\\n<Guard>通って良し。")
  0()



EVENT   243
 PAGE   1
  ShowMessageFace("",0,0,2,1)
  ShowMessage("\\n<Showy Woman>ふふっ……私に手を出すと大変なことになるわよ。 そんな度胸のある男は……惚れちゃうかも♪")
  0()



EVENT   245
 PAGE   1
  ShowMessageFace("",0,0,2,1)
  ShowMessage("\\n<Guard>……………………")
  ShowMessageFace("",0,0,2,2)
  ShowMessage("静かに隅へと控えている。 まるで番犬のようだ……")
  0()



EVENT   244
 PAGE   1
  ShowMessageFace("",0,0,2,1)
  ShowMessage("\\n<Guard>……………………")
  ShowMessageFace("",0,0,2,2)
  ShowMessage("静かに隅へと控えている。 まるで番犬のようだ……")
  0()



EVENT   246
 PAGE   1
  ShowMessageFace("",0,0,2,1)
  ShowMessage("\\n<Executive>エルカとこの繋がりか…… 安心しろ、エルカもファーザーの傘下だよ。")
  ShowMessageFace("",0,0,2,2)
  ShowMessage("\\n<Executive>なにせ、ファーザーは裏社会の帝王だ。 敵対者などいないのさ。")
  355("actor_label_jump")
  EndEventProcessing()
  DefineLabel("72")
  ShowMessageFace("phoenix_fc1",3,0,2,3)
  ShowMessage("\\n<Mini>ドンよりも偉いのか……びっくりだぞ！")
  EndEventProcessing()
  0()



EVENT   247
 PAGE   1
  ShowMessageFace("",0,0,2,1)
  ShowMessage("\\n<Executive>ロッソの依頼だが…… いつも通り、馬車に爆弾を……")
  205(0,bytes(0x04,0x08,0x6f,0x3a,0x13,0x52,0x50,0x47,0x3a,0x3a,0x4d,0x6f,0x76,0x65,0x52,0x6f,0x75,0x74,0x65,0x09,0x3a,0x0c,0x40,0x72,0x65,0x70,0x65,0x61,0x74,0x46,0x3a,0x0f,0x40,0x73,0x6b,0x69,0x70,0x70,0x61,0x62,0x6c,0x65,0x46,0x3a,0x0a,0x40,0x77,0x61,0x69,0x74,0x54,0x3a,0x0a,0x40,0x6c,0x69,0x73,0x74,0x5b,0x08,0x6f,0x3a,0x15,0x52,0x50,0x47,0x3a,0x3a,0x4d,0x6f,0x76,0x65,0x43,0x6f,0x6d,0x6d,0x61,0x6e,0x64,0x07,0x3a,0x0a,0x40,0x63,0x6f,0x64,0x65,0x69,0x29,0x3a,0x10,0x40,0x70,0x61,0x72,0x61,0x6d,0x65,0x74,0x65,0x72,0x73,0x5b,0x00,0x6f,0x3b,0x0a,0x07,0x3b,0x0b,0x69,0x1e,0x3b,0x0c,0x5b,0x00,0x6f,0x3b,0x0a,0x07,0x3b,0x0b,0x69,0x00,0x3b,0x0c,0x5b,0x00))
  ShowMessageFace("",0,0,2,2)
  ShowMessage("\\n<Executive>……おっと、聞かなかったよな？ 聞かなくていいんだ。")
  205(0,bytes(0x04,0x08,0x6f,0x3a,0x13,0x52,0x50,0x47,0x3a,0x3a,0x4d,0x6f,0x76,0x65,0x52,0x6f,0x75,0x74,0x65,0x09,0x3a,0x0c,0x40,0x72,0x65,0x70,0x65,0x61,0x74,0x46,0x3a,0x0f,0x40,0x73,0x6b,0x69,0x70,0x70,0x61,0x62,0x6c,0x65,0x46,0x3a,0x0a,0x40,0x77,0x61,0x69,0x74,0x54,0x3a,0x0a,0x40,0x6c,0x69,0x73,0x74,0x5b,0x08,0x6f,0x3a,0x15,0x52,0x50,0x47,0x3a,0x3a,0x4d,0x6f,0x76,0x65,0x43,0x6f,0x6d,0x6d,0x61,0x6e,0x64,0x07,0x3a,0x0a,0x40,0x63,0x6f,0x64,0x65,0x69,0x18,0x3a,0x10,0x40,0x70,0x61,0x72,0x61,0x6d,0x65,0x74,0x65,0x72,0x73,0x5b,0x00,0x6f,0x3b,0x0a,0x07,0x3b,0x0b,0x69,0x28,0x3b,0x0c,0x5b,0x00,0x6f,0x3b,0x0a,0x07,0x3b,0x0b,0x69,0x00,0x3b,0x0c,0x5b,0x00))
  355("actor_label_jump")
  EndEventProcessing()
  DefineLabel("64")
  ShowMessageFace("pramia_fc1",0,0,2,3)
  ShowMessage("\\n<Teeny>聞くべきでない事は聞かないのが、メイドのたしなみ……")
  EndEventProcessing()
  DefineLabel("529")
  ShowMessageFace("sara_fc1",2,0,2,4)
  ShowMessage("\\n<Sara>いったい、何の悪巧みかしら……？")
  EndEventProcessing()
  0()



EVENT   248
 PAGE   1
  ShowMessageFace("",0,0,2,1)
  ShowMessage("\\n<Executive>芸がないな、おめぇのやり方は……")
  355("actor_label_jump")
  EndEventProcessing()
  DefineLabel("531")
  ShowMessageFace("saniria_fc2",0,0,2,2)
  ShowMessage("\\n<King of San Ilia>本当に芸がない……")
  EndEventProcessing()
  0()



EVENT   249
 PAGE   1
  ShowMessageFace("",0,0,2,1)
  ShowMessage("\\n<Guard>この上にドン・ファーザーがおられる。 失礼のないようにな……")
  0()



EVENT   250
 PAGE   1
  ShowMessageFace("",0,0,2,1)
  ShowMessage("\\n<Guard>この上にドン・ファーザーがおられる。 失礼のないようにな……")
  0()



EVENT   251
 PAGE   1
  ShowMessageFace("",0,0,2,1)
  ShowMessage("\\n<Gangster>これでも俺は、大学出なんだぜ。 経済に長けてなきゃ、こんなシノギはできねぇよ……")
  ShowMessageFace("",0,0,2,2)
  ShowMessage("\\n<Gangster>帳簿だって、全部頭の中に入れておくんだよ。 紙に残したら、それが証拠になっちまうからな……")
  355("actor_label_jump")
  EndEventProcessing()
  DefineLabel("66")
  ShowMessageFace("vgirl_fc1",2,0,2,3)
  ShowMessage("\\n<Vanilla>なるほど……って、こんな事を学んではダメなのだ。")
  EndEventProcessing()
  DefineLabel("141")
  ShowMessageFace("mino_fc1",2,0,2,4)
  ShowMessage("\\n<Mina>あたしにゃ絶対にムリだな……")
  EndEventProcessing()
  0()



EVENT   252
 PAGE   1
  ShowMessageFace("",0,0,2,1)
  ShowMessage("\\n<Gangster>戦争になると、この稼業は人手不足になるんだよ。 血の気の多い奴が、軍隊に行っちまうからなぁ……")
  355("actor_label_jump")
  EndEventProcessing()
  DefineLabel("171")
  ShowMessageFace("lizardboss_fc1",3,0,2,2)
  ShowMessage("\\n<Miranda>盗賊稼業も、そういうもんだねぇ。 あたら若い命を散らしてんじゃないよ。")
  EndEventProcessing()
  0()



EVENT   254
 PAGE   1
  If(4,531,0)
   ShowMessageFace("saniria_fc2",0,0,2,1)
   ShowMessage("\\n<King of San Ilia>……………………")
   ShowMessageFace("",0,0,2,2)
   ShowMessage("\\n<Priest>ち、違います猊下…… これは……")
   ShowMessageFace("saniria_fc2",0,0,2,3)
   ShowMessage("\\n<King of San Ilia>釈明の必要はない。 君のことは、だいたい調べが済んでいるからな……")
   ShowMessageFace("",0,0,2,4)
   ShowMessage("\\n<Priest>そ、そんな……！")
   0()
  Else()
   ShowMessageFace("",0,0,2,5)
   ShowMessage("\\n<Priest>ちょ、ちょっと……！ 今は大事な話の最中で……！")
   ShowMessageFace("",0,0,2,6)
   ShowMessage("\\n<Executive>ああ、いいんだよ。 そいつらはエルカのとこのだ。")
   ShowMessageFace("",0,0,2,7)
   ShowMessage("\\n<Priest>ああ、エルカ商会の…… 私のことは内緒ですよ、立場がありますから……")
   0()
  EndIf()
  0()



EVENT   253
 PAGE   1
  ShowMessageFace("",0,0,2,1)
  ShowMessage("\\n<Executive>ああ、うん……分かった。 ちゃんと証拠は処分しただろうな？")
  ShowMessageFace("",0,0,2,2)
  ShowMessage("\\n<Priest>ええ、もちろん…… 全て回収して……")
  355("actor_label_jump")
  EndEventProcessing()
  DefineLabel("531")
  ShowMessageFace("saniria_fc2",0,0,2,3)
  ShowMessage("\\n<King of San Ilia>はて、何の証拠かな？")
  ShowMessageFace("",0,0,2,4)
  ShowMessage("\\n<Priest>げ、猊下……！ 違います、私は……")
  EndEventProcessing()
  0()



EVENT   255
 PAGE   1
  ShowMessageFace("",0,0,2,1)
  ShowMessage("\\n<Executive>私は売春業を一手に取り仕切っている。 女を食い物にしていると、仲間内からさえ言われるが……")
  ShowMessageFace("",0,0,2,2)
  ShowMessage("\\n<Executive>私達が売春を取り仕切るようになって以来、 スラムの性病率がどれだけ下がったか知っているかな？")
  ShowMessageFace("",0,0,2,3)
  ShowMessage("\\n<Executive>娼婦の自由気ままに任せれば、性病が蔓延し…… そして、彼女達自身の寿命も大幅に縮める事になる。")
  ShowMessageFace("",0,0,2,4)
  ShowMessage("\\n<Executive>彼女達も立派な商品、私達がしっかり管理している。 娼婦を酷使しているなど、いわれもない批判なのさ……")
  355("actor_label_jump")
  EndEventProcessing()
  DefineLabel("529")
  ShowMessageFace("sara_fc1",2,0,2,5)
  ShowMessage("\\n<Sara>だから必要悪とでも言いたいのかしら？ ずいぶん身勝手な論旨よね……")
  EndEventProcessing()
  0()



EVENT   256
 PAGE   1
  ShowMessageFace("",0,0,2,1)
  ShowMessage("\\n<Executive>どこもかしこも悪党ばかり。 この稼業がなくならないわけだぜ……")
  0()



EVENT   257
 PAGE   1
  ShowMessageFace("",0,0,2,1)
  ShowMessage("\\n<Maid>ここでは何も聞かないのも職務のうちです。 破格のお給金のためなら、目も耳も閉ざしましょう……")
  355("actor_label_jump")
  EndEventProcessing()
  DefineLabel("64")
  ShowMessageFace("pramia_fc1",0,0,2,2)
  ShowMessage("\\n<Teeny>それがメイドの心意気……なのかな？")
  EndEventProcessing()
  0()



EVENT   258
 PAGE   1
  ShowMessageFace("",0,0,2,1)
  ShowMessage("\\n<Maid>マフィアの帝王宅での給仕というものだから、 銃弾が飛び交う世界かと思いましたが……")
  ShowMessageFace("",0,0,2,2)
  ShowMessage("\\n<Maid>そんなことは全くなく、なんだか拍子抜けです。 ドン・ファーザーも穏やかで紳士的な方ですしね。")
  0()



EVENT   259
 PAGE   1
  ShowMessageFace("",0,0,2,1)
  ShowMessage("\\n<Executive>この町のカジノは私の管轄です。 楽しんで頂ければ幸いです。")
  355("actor_label_jump")
  EndEventProcessing()
  DefineLabel("121")
  ShowMessageFace("page65537_fc1",2,0,2,2)
  ShowMessage("\\n<Cornelia>ええ、大いに！")
  EndEventProcessing()
  0()



EVENT   260
 PAGE   1
  ShowMessageFace("",0,0,2,1)
  ShowMessage("\\n<Executive>俺達は、クスリは扱わない。 ルートに乗せているのは、正規の薬草だけだ。")
  ShowMessageFace("",0,0,2,2)
  ShowMessage("\\n<Executive>それがドン・ファーザーの方針…… そして、ファーザーの決定は世界のルールだ。")
  0()



EVENT   261
 PAGE   1
  // condition: switch 11 is ON
  0()



EVENT   47
 PAGE   1
  If(1,1033,0,1,0)
   RunCommonEvent(308)
   EndEventProcessing()
   0()
  EndIf()
  250(bytes(0x04,0x08,0x6f,0x3a,0x0c,0x52,0x50,0x47,0x3a,0x3a,0x53,0x45,0x08,0x3a,0x0a,0x40,0x6e,0x61,0x6d,0x65,0x49,0x22,0x09,0x4d,0x6f,0x76,0x65,0x06,0x3a,0x06,0x45,0x54,0x3a,0x0b,0x40,0x70,0x69,0x74,0x63,0x68,0x69,0x69,0x3a,0x0c,0x40,0x76,0x6f,0x6c,0x75,0x6d,0x65,0x69,0x55))
  TeleportPlayer(0,358,73,43,0,0)
  0()



EVENT   262
 PAGE   1
  ShowMessageFace("",0,0,2,1)
  ShowMessage("\\n<Cat>にゃ！　にゃ！")
  355("actor_label_jump")
  EndEventProcessing()
  DefineLabel("70")
  ShowMessageFace("nezumi_fc1",2,0,2,2)
  ShowMessage("\\n<Ratty>ひゃぁっ！")
  EndEventProcessing()
  0()



EVENT   263
 PAGE   1
  ShowMessageFace("",0,0,2,1)
  ShowMessage("\\n<Gangster>よしよし、カンヅメだぞー♪")
  355("actor_label_jump")
  EndEventProcessing()
  DefineLabel("60")
  ShowMessageFace("dog_fc1",1,0,2,2)
  ShowMessage("\\n<Pochi>カンヅメ、ちょうだい！")
  ShowMessageFace("",0,0,2,3)
  ShowMessage("\\n<Gangster>お前の分はねぇよ……")
  ShowMessageFace("dog_fc1",0,0,2,4)
  ShowMessage("\\n<Pochi>……………………")
  ShowMessageFace("",0,0,2,5)
  ShowMessage("\\n<Gangster>……しゃぁねぇな、ひとつだけだぞ。")
  EndEventProcessing()
  0()



EVENT   265
 PAGE   1
  250(bytes(0x04,0x08,0x6f,0x3a,0x0c,0x52,0x50,0x47,0x3a,0x3a,0x53,0x45,0x08,0x3a,0x0a,0x40,0x6e,0x61,0x6d,0x65,0x49,0x22,0x0a,0x49,0x74,0x65,0x6d,0x31,0x06,0x3a,0x06,0x45,0x54,0x3a,0x0b,0x40,0x70,0x69,0x74,0x63,0x68,0x69,0x69,0x3a,0x0c,0x40,0x76,0x6f,0x6c,0x75,0x6d,0x65,0x69,0x55))
  ChangeSelfSwitch("A",0)
  ChangeInventory_Item(32,0,0,1)
  0()
 PAGE   2
  // condition: self-switch A is ON
  0()



EVENT   266
 PAGE   1
  250(bytes(0x04,0x08,0x6f,0x3a,0x0c,0x52,0x50,0x47,0x3a,0x3a,0x53,0x45,0x08,0x3a,0x0a,0x40,0x6e,0x61,0x6d,0x65,0x49,0x22,0x0a,0x49,0x74,0x65,0x6d,0x31,0x06,0x3a,0x06,0x45,0x54,0x3a,0x0b,0x40,0x70,0x69,0x74,0x63,0x68,0x69,0x69,0x3a,0x0c,0x40,0x76,0x6f,0x6c,0x75,0x6d,0x65,0x69,0x55))
  ChangeSelfSwitch("A",0)
  ChangeInventoryWeapon(896,0,0,1,false)
  0()
 PAGE   2
  // condition: self-switch A is ON
  0()



EVENT   267
 PAGE   1
  250(bytes(0x04,0x08,0x6f,0x3a,0x0c,0x52,0x50,0x47,0x3a,0x3a,0x53,0x45,0x08,0x3a,0x0a,0x40,0x6e,0x61,0x6d,0x65,0x49,0x22,0x0a,0x49,0x74,0x65,0x6d,0x31,0x06,0x3a,0x06,0x45,0x54,0x3a,0x0b,0x40,0x70,0x69,0x74,0x63,0x68,0x69,0x69,0x3a,0x0c,0x40,0x76,0x6f,0x6c,0x75,0x6d,0x65,0x69,0x55))
  ChangeSelfSwitch("A",0)
  ChangeInventoryWeapon(521,0,0,1,false)
  0()
 PAGE   2
  // condition: self-switch A is ON
  0()



EVENT   268
 PAGE   1
  250(bytes(0x04,0x08,0x6f,0x3a,0x0c,0x52,0x50,0x47,0x3a,0x3a,0x53,0x45,0x08,0x3a,0x0a,0x40,0x6e,0x61,0x6d,0x65,0x49,0x22,0x0a,0x49,0x74,0x65,0x6d,0x31,0x06,0x3a,0x06,0x45,0x54,0x3a,0x0b,0x40,0x70,0x69,0x74,0x63,0x68,0x69,0x69,0x3a,0x0c,0x40,0x76,0x6f,0x6c,0x75,0x6d,0x65,0x69,0x55))
  ChangeSelfSwitch("A",0)
  ChangeInventory_Item(331,0,0,1)
  0()
 PAGE   2
  // condition: self-switch A is ON
  0()



EVENT   1
 PAGE   1
  If(1,1033,0,1,0)
   RunCommonEvent(308)
   EndEventProcessing()
   0()
  EndIf()
  250(bytes(0x04,0x08,0x6f,0x3a,0x0c,0x52,0x50,0x47,0x3a,0x3a,0x53,0x45,0x08,0x3a,0x0a,0x40,0x6e,0x61,0x6d,0x65,0x49,0x22,0x09,0x4d,0x6f,0x76,0x65,0x06,0x3a,0x06,0x45,0x54,0x3a,0x0b,0x40,0x70,0x69,0x74,0x63,0x68,0x69,0x69,0x3a,0x0c,0x40,0x76,0x6f,0x6c,0x75,0x6d,0x65,0x69,0x55))
  TeleportPlayer(0,358,73,43,0,0)
  0()
