# -*- encoding: utf-8 -*-
=begin
=図鑑_地名データ設定セクション by Foo

図鑑の地名に関するデータを登録します

==更新履歴
Date     Version Author Comment
13/07/24 1.0,0   Foo    新設


=end

#==============================================================================
# ■ NWConst::Library
#==============================================================================
module NWConst::Library  
  # 図鑑用地名
  # 文字列はシンボルで統一してください
  PLACE = [
    :イリアスヴィル,
    :イリアス神殿,
    :イリアスベルク,
    :名も無きスラム,
    :ポルノフ,
    :ハピネス村,
    :ハーピーの集落,
    :ミダス村,
    :エンリカ,
    :ロストルム村,
    :イリアスポート,
    :ナタリアポート,
    :ラダイト村,
    :サン・イリア,
    :地下図書館,
    :モンテカルロ,
    :ルビアナ,
    :サバサ,
    :グランドール,
    :マギステア村,
    :リリィの館,
    :サルーン,
    :？？？,
    :？？？,
    :？？？,
    :？？？,
    :？？？,
    :？？？,
    :？？？,
    :？？？,
    :？？？,
    :？？？,
    :？？？,
    :？？？,
    :？？？,
    :？？？,
    :？？？,
    :？？？,
    :？？？,
    :？？？,
    :ポケット魔王城,
    :ミトラ封印城,
    :タルタロス（イリアス大陸南）,
    :メダル女王の城,
    :タルタロス（イリアス大陸東）,
    :北のお化け屋敷,
    :タルタロス（サバサ大陸北）,
    :？？？,
    :？？？,
    :？？？,
    :？？？,
    :？？？,
    :？？？,
    :？？？,
    :？？？,
    :？？？,
    :？？？,
    :？？？,
    :？？？,
    :？？？,
    :試しの洞窟,
    :イリナ山地北の洞窟,
    :イリナ山地南の洞窟,
    :ポルノフ鉱山,
    :ハーピーの塔,
    :ナメクジタワー,
    :ミダス廃鉱,
    :ロストルム山地洞窟,
    :秘宝の洞窟,
    :南の海底神殿,
    :古代神殿跡,
    :求道者の洞窟,
    :ピラミッド,
    :魔導の塔,
    :サルーン廃鉱,
    :？？？,
    :？？？,
    :管理者の塔,
    :？？？,
    :？？？,
    :？？？,
    :？？？,
    :？？？,
    :？？？,
    :？？？,
    :？？？,
    :？？？,
    :？？？,
    :？？？,
    :？？？,
    :？？？,
    :？？？,
    :？？？,
    :？？？,
    :？？？,
    :？？？,
    :？？？,
    :イリアスヴィルの裏山,
    :タラスの丘,
    :迷いの森,
    :レムズ海岸,
    :ナタリア海岸,
    :聖山アモス,
    :精霊の森,
    :カルロスの丘,
    :恵みのオアシス,
    :サファル砂漠遺跡,
    :サルーンの丘,
    :？？？,
    :？？？,
    :？？？,
    :？？？,
    :？？？,
    :？？？,
    :？？？,
    :？？？,
    :？？？,
    :？？？,
    :？？？,
    :？？？,
    :？？？,
    :？？？,
    :？？？,
    :？？？,
    :？？？,
    :？？？,
    :？？？,
    :？？？,
    :？？？,
    :？？？,
    :？？？,
    :？？？,
    :？？？,
    :？？？,
    :？？？,
    :？？？,
    :？？？,
    :？？？,
    :？？？,
    :？？？,
    :？？？,
    :？？？,
    :？？？,
    :？？？,
    :？？？,
    :？？？,
    :？？？,
    :？？？,
    :？？？,
    :？？？,
    :？？？,
    :？？？,
    :？？？,
    :？？？,
    :？？？,
    :？？？,
    :？？？,
    :？？？,
    :？？？,
    :？？？,
    :？？？,
    :？？？,
    :？？？,
    :？？？,
    :？？？,
    :？？？,
    :？？？,
    :？？？,
    :？？？,
    :？？？,
    :？？？,
    :イリアスヴィル周辺,
    :イリアスベルク周辺,
    :名も無きスラム周辺,
    :ポルノフ周辺,
    :ハピネス村周辺,
    :イリアスポート周辺,
    :ナタリア地域東部,
    :ナタリア地域西部,
    :サバサ砂漠南部,
    :サバサ砂漠北部,
    :マギステア村周辺,
    :マールポート周辺,
    :？？？,
    :？？？,
    :？？？,
    :？？？,
    :？？？,
    :？？？,
    :？？？,
    :？？？,
    :？？？,
    :？？？,
    :？？？,
    :？？？,
    :？？？,
    :各地,
    :イリアスヴィル周辺（異世界）,
    :イリアスヴィル（異世界）,
    :ロストルム村（異世界）,
    :料理,
    :カジノ景品（ポルノフ）,
    :カジノ景品（グランドール）,
  ]
end

